PCBNEW-LibModule-V1  
# encoding utf-8
Units mm
$INDEX
PHOENIX_1935161
$EndINDEX
$MODULE PHOENIX_1935161
Po 0 0 0 15 00000000 00000000 ~~
Li PHOENIX_1935161
Cd 
Sc 00000000
At STD
Op 0 0 0
.SolderMask 0
.SolderPaste 0
T0 0 0 1 0.9 0 0.05 N H 21 "PHOENIX_1935161"
T1 0 0 1 0.9 0 0.05 N H 21 "VAL**"
DS -5 -4 5 -4 0.127 21
DS 5 -4 5 4.3 0.127 21
DS 5 4.3 -5 4.3 0.127 21
DS -5 4.3 -5 -4 0.127 21
DS -5 4.3 -5 -4 0.127 24
DS -5 -4 5 -4 0.127 24
DS 5 -4 5 4.3 0.127 24
DS 5 4.3 -5 4.3 0.127 24
DC -3.8 -1.5 -3.66 -1.5 0.28 21
DC -3.8 -1.5 -3.66 -1.5 0.28 24
DS -5.25 -4.25 5.25 -4.25 0.05 26
DS 5.25 -4.25 5.25 4.55 0.05 26
DS 5.25 4.55 -5.25 4.55 0.05 26
DS -5.25 4.55 -5.25 -4.25 0.05 26
T2 -5.087050 -5.087050 1 1 0 .05 N V 25 "NAME"
T2 -5.092830 6.366040 1 1 0 .05 N V 27 "VALUE"
$PAD
Sh "1" R 1.95 1.95 0 0 0
Dr 1.3 0 0
At STD N 00C0FFFF
.SolderMask 0
Ne 0 ""
Po -2.5 0
$EndPAD
$PAD
Sh "2" C 1.95 1.95 0 0 0
Dr 1.3 0 0
At STD N 00C0FFFF
.SolderMask 0
Ne 0 ""
Po 2.5 0
$EndPAD
$EndMODULE PHOENIX_1935161
