G04 #@! TF.GenerationSoftware,KiCad,Pcbnew,(5.0.0)*
G04 #@! TF.CreationDate,2018-12-12T00:54:55-08:00*
G04 #@! TF.ProjectId,BMS-Board,424D532D426F6172642E6B696361645F,rev?*
G04 #@! TF.SameCoordinates,Original*
G04 #@! TF.FileFunction,Copper,L2,Bot,Signal*
G04 #@! TF.FilePolarity,Positive*
%FSLAX46Y46*%
G04 Gerber Fmt 4.6, Leading zero omitted, Abs format (unit mm)*
G04 Created by KiCad (PCBNEW (5.0.0)) date 12/12/18 00:54:55*
%MOMM*%
%LPD*%
G01*
G04 APERTURE LIST*
G04 #@! TA.AperFunction,ComponentPad*
%ADD10C,0.499999*%
G04 #@! TD*
G04 #@! TA.AperFunction,ComponentPad*
%ADD11C,1.524000*%
G04 #@! TD*
G04 #@! TA.AperFunction,ComponentPad*
%ADD12R,1.800000X1.800000*%
G04 #@! TD*
G04 #@! TA.AperFunction,ComponentPad*
%ADD13C,1.800000*%
G04 #@! TD*
G04 #@! TA.AperFunction,ComponentPad*
%ADD14C,1.950000*%
G04 #@! TD*
G04 #@! TA.AperFunction,ComponentPad*
%ADD15R,1.950000X1.950000*%
G04 #@! TD*
G04 #@! TA.AperFunction,ComponentPad*
%ADD16C,1.651000*%
G04 #@! TD*
G04 #@! TA.AperFunction,ComponentPad*
%ADD17R,1.651000X1.651000*%
G04 #@! TD*
G04 #@! TA.AperFunction,ComponentPad*
%ADD18O,3.016000X1.508000*%
G04 #@! TD*
G04 #@! TA.AperFunction,ComponentPad*
%ADD19O,1.508000X3.016000*%
G04 #@! TD*
G04 #@! TA.AperFunction,ComponentPad*
%ADD20C,3.000000*%
G04 #@! TD*
G04 #@! TA.AperFunction,ViaPad*
%ADD21C,0.800000*%
G04 #@! TD*
G04 #@! TA.AperFunction,Conductor*
%ADD22C,0.200000*%
G04 #@! TD*
G04 #@! TA.AperFunction,Conductor*
%ADD23C,0.254000*%
G04 #@! TD*
G04 APERTURE END LIST*
D10*
G04 #@! TO.P,U1,33*
G04 #@! TO.N,GND*
X152590500Y-99321000D03*
X153740500Y-98171000D03*
X152590500Y-98171000D03*
X151440500Y-98171000D03*
X152590500Y-97021000D03*
G04 #@! TD*
D11*
G04 #@! TO.P,J2,10*
G04 #@! TO.N,Net-(J2-Pad10)*
X128524000Y-103632000D03*
G04 #@! TO.P,J2,9*
G04 #@! TO.N,Net-(J2-Pad9)*
X128524000Y-101092000D03*
G04 #@! TO.P,J2,8*
G04 #@! TO.N,Net-(J2-Pad8)*
X128524000Y-98552000D03*
G04 #@! TO.P,J2,7*
G04 #@! TO.N,Net-(J2-Pad7)*
X128524000Y-96012000D03*
G04 #@! TO.P,J2,6*
G04 #@! TO.N,Net-(J2-Pad6)*
X128524000Y-93472000D03*
G04 #@! TO.P,J2,5*
G04 #@! TO.N,Net-(J2-Pad5)*
X128524000Y-90932000D03*
G04 #@! TO.P,J2,4*
G04 #@! TO.N,I_SYS_SENSE*
X128524000Y-88392000D03*
G04 #@! TO.P,J2,3*
G04 #@! TO.N,I_BAT_SENSE*
X128524000Y-85852000D03*
G04 #@! TO.P,J2,2*
G04 #@! TO.N,I_IN_SENSE*
X128524000Y-83312000D03*
G04 #@! TO.P,J2,1*
G04 #@! TO.N,3v3*
X128524000Y-80772000D03*
G04 #@! TD*
G04 #@! TO.P,J3,10*
G04 #@! TO.N,GND*
X174244000Y-80772000D03*
G04 #@! TO.P,J3,9*
G04 #@! TO.N,Net-(J3-Pad9)*
X174244000Y-83312000D03*
G04 #@! TO.P,J3,8*
G04 #@! TO.N,Net-(J3-Pad8)*
X174244000Y-85852000D03*
G04 #@! TO.P,J3,7*
G04 #@! TO.N,Net-(J3-Pad7)*
X174244000Y-88392000D03*
G04 #@! TO.P,J3,6*
G04 #@! TO.N,Net-(J3-Pad6)*
X174244000Y-90932000D03*
G04 #@! TO.P,J3,5*
G04 #@! TO.N,Net-(J3-Pad5)*
X174244000Y-93472000D03*
G04 #@! TO.P,J3,4*
G04 #@! TO.N,Net-(J3-Pad4)*
X174244000Y-96012000D03*
G04 #@! TO.P,J3,3*
G04 #@! TO.N,Net-(J3-Pad3)*
X174244000Y-98552000D03*
G04 #@! TO.P,J3,2*
G04 #@! TO.N,Net-(J3-Pad2)*
X174244000Y-101092000D03*
G04 #@! TO.P,J3,1*
G04 #@! TO.N,Net-(D1-Pad2)*
X174244000Y-103632000D03*
G04 #@! TD*
D12*
G04 #@! TO.P,U2,1*
G04 #@! TO.N,/VSYS*
X119126000Y-66548000D03*
D13*
G04 #@! TO.P,U2,2*
G04 #@! TO.N,GND*
X116586000Y-66548000D03*
G04 #@! TO.P,U2,3*
G04 #@! TO.N,3v3*
X114046000Y-66548000D03*
G04 #@! TD*
D14*
G04 #@! TO.P,J4,2*
G04 #@! TO.N,GND*
X153503000Y-51257200D03*
D15*
G04 #@! TO.P,J4,1*
G04 #@! TO.N,/VSYS*
X148503000Y-51257200D03*
G04 #@! TD*
D14*
G04 #@! TO.P,J5,2*
G04 #@! TO.N,GND*
X175768000Y-50078000D03*
D15*
G04 #@! TO.P,J5,1*
G04 #@! TO.N,/VBAT*
X175768000Y-55078000D03*
G04 #@! TD*
D16*
G04 #@! TO.P,J6,4*
G04 #@! TO.N,Net-(J6-Pad4)*
X142084000Y-51352000D03*
G04 #@! TO.P,J6,3*
G04 #@! TO.N,/VIN*
X139544000Y-51352000D03*
G04 #@! TO.P,J6,2*
G04 #@! TO.N,Net-(J6-Pad2)*
X142084000Y-53892000D03*
D17*
G04 #@! TO.P,J6,1*
G04 #@! TO.N,Net-(J6-Pad1)*
X139544000Y-53892000D03*
G04 #@! TD*
D16*
G04 #@! TO.P,J7,4*
G04 #@! TO.N,Net-(C21-Pad2)*
X161814000Y-48392000D03*
G04 #@! TO.P,J7,3*
G04 #@! TO.N,/VSYS*
X159274000Y-48392000D03*
G04 #@! TO.P,J7,2*
G04 #@! TO.N,Net-(J7-Pad2)*
X161814000Y-50932000D03*
D17*
G04 #@! TO.P,J7,1*
G04 #@! TO.N,Net-(J7-Pad1)*
X159274000Y-50932000D03*
G04 #@! TD*
D16*
G04 #@! TO.P,J8,4*
G04 #@! TO.N,Net-(J8-Pad4)*
X175504000Y-63922000D03*
G04 #@! TO.P,J8,3*
G04 #@! TO.N,/VBAT*
X175504000Y-61382000D03*
G04 #@! TO.P,J8,2*
G04 #@! TO.N,Net-(J8-Pad2)*
X172964000Y-63922000D03*
D17*
G04 #@! TO.P,J8,1*
G04 #@! TO.N,Net-(J8-Pad1)*
X172964000Y-61382000D03*
G04 #@! TD*
D18*
G04 #@! TO.P,J1,3*
G04 #@! TO.N,GND*
X120824000Y-59282000D03*
D19*
G04 #@! TO.P,J1,2*
X117824000Y-54582000D03*
G04 #@! TO.P,J1,1*
G04 #@! TO.N,/VIN*
X123824000Y-54582000D03*
G04 #@! TD*
D20*
G04 #@! TO.P,TP10,1*
G04 #@! TO.N,Net-(R14-Pad2)*
X169634000Y-90262000D03*
G04 #@! TD*
G04 #@! TO.P,TP11,1*
G04 #@! TO.N,3v3*
X123952000Y-69850000D03*
G04 #@! TD*
G04 #@! TO.P,TP8,1*
G04 #@! TO.N,I_IN_SENSE*
X112522000Y-78232000D03*
G04 #@! TD*
G04 #@! TO.P,TP14,1*
G04 #@! TO.N,I_SYS_SENSE*
X112522000Y-90424000D03*
G04 #@! TD*
G04 #@! TO.P,TP15,1*
G04 #@! TO.N,I_BAT_SENSE*
X112522000Y-84328000D03*
G04 #@! TD*
D21*
G04 #@! TO.N,GND*
X144053655Y-98516925D03*
X147109084Y-106453479D03*
X153558567Y-102255154D03*
X161745564Y-106449164D03*
X148719627Y-106487452D03*
X127558800Y-65963800D03*
X134493000Y-53162200D03*
X146634200Y-81026000D03*
X157911800Y-80035400D03*
X133883400Y-89179400D03*
X149225000Y-102133400D03*
X166268400Y-95834200D03*
X138912600Y-64287400D03*
X156692600Y-59817000D03*
X139065000Y-75539600D03*
X173041000Y-109742000D03*
X132934000Y-85202000D03*
X165564000Y-49402000D03*
X154432000Y-89916000D03*
G04 #@! TO.N,Net-(C6-Pad1)*
X133295209Y-77208502D03*
X131424330Y-76995046D03*
G04 #@! TO.N,Net-(C7-Pad1)*
X134136475Y-72939383D03*
X131368800Y-73152000D03*
G04 #@! TO.N,VDDA*
X161254000Y-99562000D03*
X159354000Y-100062000D03*
X148354000Y-100862000D03*
X151854000Y-91562000D03*
X145204000Y-93812000D03*
G04 #@! TO.N,Net-(C11-Pad1)*
X141104000Y-99462000D03*
X154904000Y-104228660D03*
G04 #@! TO.N,Net-(C12-Pad1)*
X144957800Y-88290400D03*
X146634200Y-86639400D03*
G04 #@! TO.N,Net-(C13-Pad1)*
X160502600Y-90017600D03*
X161721800Y-91262200D03*
G04 #@! TO.N,Net-(C13-Pad2)*
X156540200Y-93599000D03*
X156540200Y-90932000D03*
G04 #@! TO.N,3v3*
X145064000Y-49982000D03*
X136286240Y-46675040D03*
G04 #@! TO.N,Net-(C23-Pad2)*
X171526200Y-85648800D03*
X174384000Y-71972000D03*
G04 #@! TO.N,Net-(C23-Pad1)*
X166283275Y-87238475D03*
X166217600Y-91744800D03*
X168734000Y-75102000D03*
X169894000Y-70822000D03*
G04 #@! TO.N,Net-(R11-Pad2)*
X145704000Y-96762000D03*
X148504000Y-99512000D03*
G04 #@! TO.N,I_IN_SENSE*
X126054000Y-76482000D03*
X124353320Y-79278480D03*
G04 #@! TO.N,I_BAT_SENSE*
X110337600Y-64211200D03*
X112384000Y-54152000D03*
G04 #@! TO.N,I_SYS_SENSE*
X121488200Y-74676000D03*
X121504315Y-64273259D03*
X118521480Y-90424000D03*
G04 #@! TO.N,Net-(J2-Pad9)*
X152790500Y-106962000D03*
X148844000Y-107873800D03*
G04 #@! TO.N,Net-(J2-Pad10)*
X151688800Y-108523810D03*
X147142200Y-108559600D03*
G04 #@! TO.N,Net-(D1-Pad2)*
X165557544Y-103637059D03*
X145714720Y-98069400D03*
G04 #@! TD*
D22*
G04 #@! TO.N,Net-(C6-Pad1)*
X133081753Y-76995046D02*
X133295209Y-77208502D01*
X131424330Y-76995046D02*
X133081753Y-76995046D01*
G04 #@! TO.N,Net-(C7-Pad1)*
X131368800Y-73152000D02*
X133923858Y-73152000D01*
X133923858Y-73152000D02*
X134136475Y-72939383D01*
G04 #@! TO.N,VDDA*
X159354000Y-100062000D02*
X158554000Y-100862000D01*
X158554000Y-100862000D02*
X148354000Y-100862000D01*
X151854000Y-91562000D02*
X151140499Y-92275501D01*
X151106838Y-94195661D02*
X151140499Y-94162000D01*
X146153346Y-94195661D02*
X151106838Y-94195661D01*
X145769685Y-93812000D02*
X146153346Y-94195661D01*
X145204000Y-93812000D02*
X145769685Y-93812000D01*
X151140499Y-92275501D02*
X151140499Y-94162000D01*
X149860000Y-95442499D02*
X151106838Y-94195661D01*
X148354000Y-100862000D02*
X149860000Y-99356000D01*
X149860000Y-99356000D02*
X149860000Y-95442499D01*
G04 #@! TO.N,Net-(C11-Pad1)*
X141104000Y-99462000D02*
X143404000Y-99462000D01*
X143404000Y-99462000D02*
X148170660Y-104228660D01*
X148170660Y-104228660D02*
X154904000Y-104228660D01*
G04 #@! TO.N,Net-(C12-Pad1)*
X144957800Y-88290400D02*
X146608800Y-86639400D01*
X146608800Y-86639400D02*
X146634200Y-86639400D01*
G04 #@! TO.N,Net-(C13-Pad1)*
X160502600Y-90017600D02*
X160502600Y-90043000D01*
X160502600Y-90043000D02*
X161721800Y-91262200D01*
G04 #@! TO.N,Net-(C13-Pad2)*
X156540200Y-93599000D02*
X156540200Y-90932000D01*
G04 #@! TO.N,3v3*
X145064000Y-49982000D02*
X145064000Y-47222000D01*
X145064000Y-47222000D02*
X144924000Y-47082000D01*
X136331400Y-46761400D02*
X136652000Y-47082000D01*
X136321800Y-46761400D02*
X136331400Y-46761400D01*
X144924000Y-47082000D02*
X136652000Y-47082000D01*
G04 #@! TO.N,Net-(C23-Pad2)*
X171602400Y-85572600D02*
X171526200Y-85648800D01*
X174384000Y-71972000D02*
X172174000Y-74182000D01*
X172174000Y-85001000D02*
X171526200Y-85648800D01*
X172174000Y-74182000D02*
X172174000Y-85001000D01*
G04 #@! TO.N,Net-(C23-Pad1)*
X166283275Y-87238475D02*
X166283275Y-91679125D01*
X166283275Y-91679125D02*
X166217600Y-91744800D01*
X168734000Y-75102000D02*
X168734000Y-73182000D01*
X168734000Y-73182000D02*
X168734000Y-71982000D01*
X168734000Y-71982000D02*
X169894000Y-70822000D01*
G04 #@! TO.N,Net-(R11-Pad2)*
X145704000Y-96762000D02*
X148454000Y-99512000D01*
X148454000Y-99512000D02*
X148504000Y-99512000D01*
G04 #@! TO.N,I_IN_SENSE*
X128270000Y-83312000D02*
X128524000Y-83312000D01*
X127446370Y-83312000D02*
X125993490Y-81859120D01*
X128524000Y-83312000D02*
X127446370Y-83312000D01*
X125993490Y-81859120D02*
X126054000Y-81798610D01*
X124378720Y-79253080D02*
X124353320Y-79278480D01*
X126054000Y-79253080D02*
X124378720Y-79253080D01*
X126054000Y-79253080D02*
X126054000Y-76482000D01*
X126054000Y-81798610D02*
X126054000Y-79253080D01*
G04 #@! TO.N,I_BAT_SENSE*
X124980200Y-88582000D02*
X124968000Y-88569800D01*
X125806200Y-88569800D02*
X128524000Y-85852000D01*
X124968000Y-88569800D02*
X125806200Y-88569800D01*
X116763800Y-88569800D02*
X112522000Y-84328000D01*
X118658640Y-88569800D02*
X116763800Y-88569800D01*
X124968000Y-88569800D02*
X118658640Y-88569800D01*
X110337600Y-64211200D02*
X110337600Y-56198400D01*
X110337600Y-56198400D02*
X112384000Y-54152000D01*
G04 #@! TO.N,I_SYS_SENSE*
X112680001Y-90582001D02*
X112522000Y-90424000D01*
X121539000Y-71348600D02*
X121539000Y-74625200D01*
X121539000Y-74625200D02*
X121488200Y-74676000D01*
X121539000Y-71348600D02*
X121539000Y-64307944D01*
X121539000Y-64307944D02*
X121504315Y-64273259D01*
X118879922Y-90065558D02*
X118521480Y-90424000D01*
X126850442Y-90065558D02*
X118879922Y-90065558D01*
X128524000Y-88392000D02*
X126850442Y-90065558D01*
G04 #@! TO.N,Net-(J2-Pad9)*
X148844000Y-107873800D02*
X151878700Y-107873800D01*
X151878700Y-107873800D02*
X152790500Y-106962000D01*
G04 #@! TO.N,Net-(J2-Pad10)*
X147142200Y-108559600D02*
X151653010Y-108559600D01*
X151653010Y-108559600D02*
X151688800Y-108523810D01*
G04 #@! TO.N,Net-(D1-Pad2)*
X145714720Y-98069400D02*
X145714720Y-100486822D01*
X145714720Y-100486822D02*
X148725234Y-103497336D01*
X148725234Y-103497336D02*
X165417821Y-103497336D01*
X165417821Y-103497336D02*
X165557544Y-103637059D01*
G04 #@! TD*
D23*
G04 #@! TO.N,GND*
G36*
X135251240Y-46469166D02*
X135251240Y-46880914D01*
X135408809Y-47261320D01*
X135699960Y-47552471D01*
X136080366Y-47710040D01*
X136268964Y-47710040D01*
X136365217Y-47774354D01*
X136579612Y-47817000D01*
X136579616Y-47817000D01*
X136652000Y-47831398D01*
X136724384Y-47817000D01*
X144329001Y-47817000D01*
X144329000Y-49253289D01*
X144186569Y-49395720D01*
X144029000Y-49776126D01*
X144029000Y-50187874D01*
X144186569Y-50568280D01*
X144477720Y-50859431D01*
X144858126Y-51017000D01*
X145269874Y-51017000D01*
X145650280Y-50859431D01*
X145941431Y-50568280D01*
X146059928Y-50282200D01*
X146880560Y-50282200D01*
X146880560Y-52232200D01*
X146929843Y-52479965D01*
X147070191Y-52690009D01*
X147280235Y-52830357D01*
X147528000Y-52879640D01*
X149478000Y-52879640D01*
X149725765Y-52830357D01*
X149935809Y-52690009D01*
X150076157Y-52479965D01*
X150093725Y-52391642D01*
X152548163Y-52391642D01*
X152643763Y-52655904D01*
X153244429Y-52878249D01*
X153884461Y-52853805D01*
X154362237Y-52655904D01*
X154457837Y-52391642D01*
X153503000Y-51436805D01*
X152548163Y-52391642D01*
X150093725Y-52391642D01*
X150125440Y-52232200D01*
X150125440Y-50998629D01*
X151881951Y-50998629D01*
X151906395Y-51638661D01*
X152104296Y-52116437D01*
X152368558Y-52212037D01*
X153323395Y-51257200D01*
X153682605Y-51257200D01*
X154637442Y-52212037D01*
X154901704Y-52116437D01*
X155124049Y-51515771D01*
X155099605Y-50875739D01*
X154901704Y-50397963D01*
X154637442Y-50302363D01*
X153682605Y-51257200D01*
X153323395Y-51257200D01*
X152368558Y-50302363D01*
X152104296Y-50397963D01*
X151881951Y-50998629D01*
X150125440Y-50998629D01*
X150125440Y-50282200D01*
X150093726Y-50122758D01*
X152548163Y-50122758D01*
X153503000Y-51077595D01*
X154457837Y-50122758D01*
X154451956Y-50106500D01*
X157801060Y-50106500D01*
X157801060Y-51757500D01*
X157850343Y-52005265D01*
X157990691Y-52215309D01*
X158200735Y-52355657D01*
X158448500Y-52404940D01*
X160099500Y-52404940D01*
X160347265Y-52355657D01*
X160557309Y-52215309D01*
X160697657Y-52005265D01*
X160718254Y-51901713D01*
X160986693Y-52170152D01*
X161523488Y-52392500D01*
X162104512Y-52392500D01*
X162641307Y-52170152D01*
X163052152Y-51759307D01*
X163274500Y-51222512D01*
X163274500Y-51212442D01*
X174813163Y-51212442D01*
X174908763Y-51476704D01*
X175509429Y-51699049D01*
X176149461Y-51674605D01*
X176627237Y-51476704D01*
X176722837Y-51212442D01*
X175768000Y-50257605D01*
X174813163Y-51212442D01*
X163274500Y-51212442D01*
X163274500Y-50641488D01*
X163052152Y-50104693D01*
X162766888Y-49819429D01*
X174146951Y-49819429D01*
X174171395Y-50459461D01*
X174369296Y-50937237D01*
X174633558Y-51032837D01*
X175588395Y-50078000D01*
X175947605Y-50078000D01*
X176902442Y-51032837D01*
X177166704Y-50937237D01*
X177389049Y-50336571D01*
X177364605Y-49696539D01*
X177166704Y-49218763D01*
X176902442Y-49123163D01*
X175947605Y-50078000D01*
X175588395Y-50078000D01*
X174633558Y-49123163D01*
X174369296Y-49218763D01*
X174146951Y-49819429D01*
X162766888Y-49819429D01*
X162641307Y-49693848D01*
X162564419Y-49662000D01*
X162641307Y-49630152D01*
X163052152Y-49219307D01*
X163166371Y-48943558D01*
X174813163Y-48943558D01*
X175768000Y-49898395D01*
X176722837Y-48943558D01*
X176627237Y-48679296D01*
X176026571Y-48456951D01*
X175386539Y-48481395D01*
X174908763Y-48679296D01*
X174813163Y-48943558D01*
X163166371Y-48943558D01*
X163274500Y-48682512D01*
X163274500Y-48101488D01*
X163052152Y-47564693D01*
X162641307Y-47153848D01*
X162104512Y-46931500D01*
X161523488Y-46931500D01*
X160986693Y-47153848D01*
X160575848Y-47564693D01*
X160544000Y-47641581D01*
X160512152Y-47564693D01*
X160101307Y-47153848D01*
X159564512Y-46931500D01*
X158983488Y-46931500D01*
X158446693Y-47153848D01*
X158035848Y-47564693D01*
X157813500Y-48101488D01*
X157813500Y-48682512D01*
X158035848Y-49219307D01*
X158304287Y-49487746D01*
X158200735Y-49508343D01*
X157990691Y-49648691D01*
X157850343Y-49858735D01*
X157801060Y-50106500D01*
X154451956Y-50106500D01*
X154362237Y-49858496D01*
X153761571Y-49636151D01*
X153121539Y-49660595D01*
X152643763Y-49858496D01*
X152548163Y-50122758D01*
X150093726Y-50122758D01*
X150076157Y-50034435D01*
X149935809Y-49824391D01*
X149725765Y-49684043D01*
X149478000Y-49634760D01*
X147528000Y-49634760D01*
X147280235Y-49684043D01*
X147070191Y-49824391D01*
X146929843Y-50034435D01*
X146880560Y-50282200D01*
X146059928Y-50282200D01*
X146099000Y-50187874D01*
X146099000Y-49776126D01*
X145941431Y-49395720D01*
X145799000Y-49253289D01*
X145799000Y-47294384D01*
X145813398Y-47222000D01*
X145799000Y-47149616D01*
X145799000Y-47149612D01*
X145756354Y-46935217D01*
X145593905Y-46692095D01*
X145532535Y-46651089D01*
X145494911Y-46613465D01*
X145453905Y-46552095D01*
X145233762Y-46405000D01*
X180163001Y-46405000D01*
X180163000Y-111075000D01*
X109905000Y-111075000D01*
X109905000Y-108353726D01*
X146107200Y-108353726D01*
X146107200Y-108765474D01*
X146264769Y-109145880D01*
X146555920Y-109437031D01*
X146936326Y-109594600D01*
X147348074Y-109594600D01*
X147728480Y-109437031D01*
X147870911Y-109294600D01*
X150995879Y-109294600D01*
X151102520Y-109401241D01*
X151482926Y-109558810D01*
X151894674Y-109558810D01*
X152275080Y-109401241D01*
X152566231Y-109110090D01*
X152723800Y-108729684D01*
X152723800Y-108317936D01*
X152650638Y-108141308D01*
X152794946Y-107997000D01*
X152996374Y-107997000D01*
X153376780Y-107839431D01*
X153667931Y-107548280D01*
X153825500Y-107167874D01*
X153825500Y-106756126D01*
X153667931Y-106375720D01*
X153376780Y-106084569D01*
X152996374Y-105927000D01*
X152584626Y-105927000D01*
X152204220Y-106084569D01*
X151913069Y-106375720D01*
X151755500Y-106756126D01*
X151755500Y-106957554D01*
X151574254Y-107138800D01*
X149572711Y-107138800D01*
X149430280Y-106996369D01*
X149049874Y-106838800D01*
X148638126Y-106838800D01*
X148257720Y-106996369D01*
X147966569Y-107287520D01*
X147809000Y-107667926D01*
X147809000Y-107762689D01*
X147728480Y-107682169D01*
X147348074Y-107524600D01*
X146936326Y-107524600D01*
X146555920Y-107682169D01*
X146264769Y-107973320D01*
X146107200Y-108353726D01*
X109905000Y-108353726D01*
X109905000Y-89999322D01*
X110387000Y-89999322D01*
X110387000Y-90848678D01*
X110712034Y-91633380D01*
X111312620Y-92233966D01*
X112097322Y-92559000D01*
X112946678Y-92559000D01*
X113731380Y-92233966D01*
X114331966Y-91633380D01*
X114657000Y-90848678D01*
X114657000Y-89999322D01*
X114331966Y-89214620D01*
X113731380Y-88614034D01*
X112946678Y-88289000D01*
X112097322Y-88289000D01*
X111312620Y-88614034D01*
X110712034Y-89214620D01*
X110387000Y-89999322D01*
X109905000Y-89999322D01*
X109905000Y-83903322D01*
X110387000Y-83903322D01*
X110387000Y-84752678D01*
X110712034Y-85537380D01*
X111312620Y-86137966D01*
X112097322Y-86463000D01*
X112946678Y-86463000D01*
X113421059Y-86266505D01*
X116192890Y-89038337D01*
X116233895Y-89099705D01*
X116477017Y-89262154D01*
X116691412Y-89304800D01*
X116691415Y-89304800D01*
X116763799Y-89319198D01*
X116836183Y-89304800D01*
X124846481Y-89304800D01*
X124975976Y-89330558D01*
X118952310Y-89330558D01*
X118879922Y-89316159D01*
X118807534Y-89330558D01*
X118593139Y-89373204D01*
X118569499Y-89389000D01*
X118315606Y-89389000D01*
X117935200Y-89546569D01*
X117644049Y-89837720D01*
X117486480Y-90218126D01*
X117486480Y-90629874D01*
X117644049Y-91010280D01*
X117935200Y-91301431D01*
X118315606Y-91459000D01*
X118727354Y-91459000D01*
X119107760Y-91301431D01*
X119398911Y-91010280D01*
X119485781Y-90800558D01*
X126778058Y-90800558D01*
X126850442Y-90814956D01*
X126922826Y-90800558D01*
X126922830Y-90800558D01*
X127127000Y-90759946D01*
X127127000Y-91209881D01*
X127339680Y-91723337D01*
X127732663Y-92116320D01*
X127939513Y-92202000D01*
X127732663Y-92287680D01*
X127339680Y-92680663D01*
X127127000Y-93194119D01*
X127127000Y-93749881D01*
X127339680Y-94263337D01*
X127732663Y-94656320D01*
X127939513Y-94742000D01*
X127732663Y-94827680D01*
X127339680Y-95220663D01*
X127127000Y-95734119D01*
X127127000Y-96289881D01*
X127339680Y-96803337D01*
X127732663Y-97196320D01*
X127939513Y-97282000D01*
X127732663Y-97367680D01*
X127339680Y-97760663D01*
X127127000Y-98274119D01*
X127127000Y-98829881D01*
X127339680Y-99343337D01*
X127732663Y-99736320D01*
X127939513Y-99822000D01*
X127732663Y-99907680D01*
X127339680Y-100300663D01*
X127127000Y-100814119D01*
X127127000Y-101369881D01*
X127339680Y-101883337D01*
X127732663Y-102276320D01*
X127939513Y-102362000D01*
X127732663Y-102447680D01*
X127339680Y-102840663D01*
X127127000Y-103354119D01*
X127127000Y-103909881D01*
X127339680Y-104423337D01*
X127732663Y-104816320D01*
X128246119Y-105029000D01*
X128801881Y-105029000D01*
X129315337Y-104816320D01*
X129708320Y-104423337D01*
X129921000Y-103909881D01*
X129921000Y-103354119D01*
X129708320Y-102840663D01*
X129315337Y-102447680D01*
X129108487Y-102362000D01*
X129315337Y-102276320D01*
X129708320Y-101883337D01*
X129921000Y-101369881D01*
X129921000Y-100814119D01*
X129708320Y-100300663D01*
X129315337Y-99907680D01*
X129108487Y-99822000D01*
X129315337Y-99736320D01*
X129708320Y-99343337D01*
X129744443Y-99256126D01*
X140069000Y-99256126D01*
X140069000Y-99667874D01*
X140226569Y-100048280D01*
X140517720Y-100339431D01*
X140898126Y-100497000D01*
X141309874Y-100497000D01*
X141690280Y-100339431D01*
X141832711Y-100197000D01*
X143099554Y-100197000D01*
X147599751Y-104697198D01*
X147640755Y-104758565D01*
X147883877Y-104921014D01*
X148098272Y-104963660D01*
X148098275Y-104963660D01*
X148170659Y-104978058D01*
X148243043Y-104963660D01*
X154175289Y-104963660D01*
X154317720Y-105106091D01*
X154698126Y-105263660D01*
X155109874Y-105263660D01*
X155490280Y-105106091D01*
X155781431Y-104814940D01*
X155939000Y-104434534D01*
X155939000Y-104232336D01*
X164689110Y-104232336D01*
X164971264Y-104514490D01*
X165351670Y-104672059D01*
X165763418Y-104672059D01*
X166143824Y-104514490D01*
X166434975Y-104223339D01*
X166592544Y-103842933D01*
X166592544Y-103431185D01*
X166434975Y-103050779D01*
X166143824Y-102759628D01*
X165763418Y-102602059D01*
X165351670Y-102602059D01*
X164971264Y-102759628D01*
X164968556Y-102762336D01*
X149029681Y-102762336D01*
X148164345Y-101897000D01*
X148559874Y-101897000D01*
X148940280Y-101739431D01*
X149082711Y-101597000D01*
X158481616Y-101597000D01*
X158554000Y-101611398D01*
X158626384Y-101597000D01*
X158626388Y-101597000D01*
X158840783Y-101554354D01*
X159083905Y-101391905D01*
X159124911Y-101330535D01*
X159358446Y-101097000D01*
X159559874Y-101097000D01*
X159940280Y-100939431D01*
X160231431Y-100648280D01*
X160389000Y-100267874D01*
X160389000Y-100160711D01*
X160667720Y-100439431D01*
X161048126Y-100597000D01*
X161459874Y-100597000D01*
X161840280Y-100439431D01*
X162131431Y-100148280D01*
X162289000Y-99767874D01*
X162289000Y-99356126D01*
X162131431Y-98975720D01*
X161840280Y-98684569D01*
X161459874Y-98527000D01*
X161048126Y-98527000D01*
X160667720Y-98684569D01*
X160376569Y-98975720D01*
X160219000Y-99356126D01*
X160219000Y-99463289D01*
X159940280Y-99184569D01*
X159559874Y-99027000D01*
X159148126Y-99027000D01*
X158767720Y-99184569D01*
X158476569Y-99475720D01*
X158319000Y-99856126D01*
X158319000Y-100057554D01*
X158249554Y-100127000D01*
X150128447Y-100127000D01*
X150328538Y-99926909D01*
X150389905Y-99885905D01*
X150552354Y-99642783D01*
X150595000Y-99428388D01*
X150595000Y-99428387D01*
X150609399Y-99356000D01*
X150595000Y-99283612D01*
X150595000Y-95746945D01*
X151575376Y-94766570D01*
X151636743Y-94725566D01*
X151650226Y-94705388D01*
X151670404Y-94691905D01*
X151832853Y-94448783D01*
X151875499Y-94234388D01*
X151875499Y-94234384D01*
X151889897Y-94162000D01*
X151875499Y-94089616D01*
X151875499Y-92597000D01*
X152059874Y-92597000D01*
X152440280Y-92439431D01*
X152731431Y-92148280D01*
X152889000Y-91767874D01*
X152889000Y-91356126D01*
X152731431Y-90975720D01*
X152481837Y-90726126D01*
X155505200Y-90726126D01*
X155505200Y-91137874D01*
X155662769Y-91518280D01*
X155805201Y-91660712D01*
X155805200Y-92870289D01*
X155662769Y-93012720D01*
X155505200Y-93393126D01*
X155505200Y-93804874D01*
X155662769Y-94185280D01*
X155953920Y-94476431D01*
X156334326Y-94634000D01*
X156746074Y-94634000D01*
X157126480Y-94476431D01*
X157417631Y-94185280D01*
X157575200Y-93804874D01*
X157575200Y-93393126D01*
X157417631Y-93012720D01*
X157275200Y-92870289D01*
X157275200Y-91660711D01*
X157417631Y-91518280D01*
X157575200Y-91137874D01*
X157575200Y-90726126D01*
X157417631Y-90345720D01*
X157126480Y-90054569D01*
X156746074Y-89897000D01*
X156334326Y-89897000D01*
X155953920Y-90054569D01*
X155662769Y-90345720D01*
X155505200Y-90726126D01*
X152481837Y-90726126D01*
X152440280Y-90684569D01*
X152059874Y-90527000D01*
X151648126Y-90527000D01*
X151267720Y-90684569D01*
X150976569Y-90975720D01*
X150819000Y-91356126D01*
X150819000Y-91557554D01*
X150671964Y-91704590D01*
X150610594Y-91745596D01*
X150448145Y-91988719D01*
X150405499Y-92203114D01*
X150405499Y-92203117D01*
X150391101Y-92275501D01*
X150405499Y-92347886D01*
X150405500Y-93460661D01*
X146457792Y-93460661D01*
X146340596Y-93343465D01*
X146299590Y-93282095D01*
X146056468Y-93119646D01*
X145955217Y-93099506D01*
X145790280Y-92934569D01*
X145409874Y-92777000D01*
X144998126Y-92777000D01*
X144617720Y-92934569D01*
X144326569Y-93225720D01*
X144169000Y-93606126D01*
X144169000Y-94017874D01*
X144326569Y-94398280D01*
X144617720Y-94689431D01*
X144998126Y-94847000D01*
X145409874Y-94847000D01*
X145653903Y-94745920D01*
X145866563Y-94888015D01*
X146080958Y-94930661D01*
X146153346Y-94945060D01*
X146225734Y-94930661D01*
X149318024Y-94930661D01*
X149289092Y-94973961D01*
X149289091Y-94973962D01*
X149167646Y-95155717D01*
X149110602Y-95442499D01*
X149125001Y-95514888D01*
X149125000Y-98669289D01*
X149090280Y-98634569D01*
X148709874Y-98477000D01*
X148458447Y-98477000D01*
X146739000Y-96757554D01*
X146739000Y-96556126D01*
X146581431Y-96175720D01*
X146290280Y-95884569D01*
X145909874Y-95727000D01*
X145498126Y-95727000D01*
X145117720Y-95884569D01*
X144826569Y-96175720D01*
X144669000Y-96556126D01*
X144669000Y-96967874D01*
X144826569Y-97348280D01*
X144899349Y-97421060D01*
X144837289Y-97483120D01*
X144679720Y-97863526D01*
X144679720Y-98275274D01*
X144837289Y-98655680D01*
X144979720Y-98798111D01*
X144979721Y-99998275D01*
X143974911Y-98993465D01*
X143933905Y-98932095D01*
X143690783Y-98769646D01*
X143476388Y-98727000D01*
X143476384Y-98727000D01*
X143404000Y-98712602D01*
X143331616Y-98727000D01*
X141832711Y-98727000D01*
X141690280Y-98584569D01*
X141309874Y-98427000D01*
X140898126Y-98427000D01*
X140517720Y-98584569D01*
X140226569Y-98875720D01*
X140069000Y-99256126D01*
X129744443Y-99256126D01*
X129921000Y-98829881D01*
X129921000Y-98274119D01*
X129708320Y-97760663D01*
X129315337Y-97367680D01*
X129108487Y-97282000D01*
X129315337Y-97196320D01*
X129708320Y-96803337D01*
X129921000Y-96289881D01*
X129921000Y-95734119D01*
X129708320Y-95220663D01*
X129315337Y-94827680D01*
X129108487Y-94742000D01*
X129315337Y-94656320D01*
X129708320Y-94263337D01*
X129921000Y-93749881D01*
X129921000Y-93194119D01*
X129708320Y-92680663D01*
X129315337Y-92287680D01*
X129108487Y-92202000D01*
X129315337Y-92116320D01*
X129708320Y-91723337D01*
X129921000Y-91209881D01*
X129921000Y-90654119D01*
X129708320Y-90140663D01*
X129379383Y-89811726D01*
X159467600Y-89811726D01*
X159467600Y-90223474D01*
X159625169Y-90603880D01*
X159916320Y-90895031D01*
X160296726Y-91052600D01*
X160472754Y-91052600D01*
X160686800Y-91266647D01*
X160686800Y-91468074D01*
X160844369Y-91848480D01*
X161135520Y-92139631D01*
X161515926Y-92297200D01*
X161927674Y-92297200D01*
X162308080Y-92139631D01*
X162599231Y-91848480D01*
X162727452Y-91538926D01*
X165182600Y-91538926D01*
X165182600Y-91950674D01*
X165340169Y-92331080D01*
X165631320Y-92622231D01*
X166011726Y-92779800D01*
X166423474Y-92779800D01*
X166803880Y-92622231D01*
X167095031Y-92331080D01*
X167252600Y-91950674D01*
X167252600Y-91538926D01*
X167095031Y-91158520D01*
X167018275Y-91081764D01*
X167018275Y-89837322D01*
X167499000Y-89837322D01*
X167499000Y-90686678D01*
X167824034Y-91471380D01*
X168424620Y-92071966D01*
X169209322Y-92397000D01*
X170058678Y-92397000D01*
X170843380Y-92071966D01*
X171443966Y-91471380D01*
X171769000Y-90686678D01*
X171769000Y-89837322D01*
X171443966Y-89052620D01*
X170843380Y-88452034D01*
X170058678Y-88127000D01*
X169209322Y-88127000D01*
X168424620Y-88452034D01*
X167824034Y-89052620D01*
X167499000Y-89837322D01*
X167018275Y-89837322D01*
X167018275Y-87967186D01*
X167160706Y-87824755D01*
X167318275Y-87444349D01*
X167318275Y-87032601D01*
X167160706Y-86652195D01*
X166869555Y-86361044D01*
X166489149Y-86203475D01*
X166077401Y-86203475D01*
X165696995Y-86361044D01*
X165405844Y-86652195D01*
X165248275Y-87032601D01*
X165248275Y-87444349D01*
X165405844Y-87824755D01*
X165548275Y-87967186D01*
X165548276Y-90950413D01*
X165340169Y-91158520D01*
X165182600Y-91538926D01*
X162727452Y-91538926D01*
X162756800Y-91468074D01*
X162756800Y-91056326D01*
X162599231Y-90675920D01*
X162308080Y-90384769D01*
X161927674Y-90227200D01*
X161726247Y-90227200D01*
X161537600Y-90038554D01*
X161537600Y-89811726D01*
X161380031Y-89431320D01*
X161088880Y-89140169D01*
X160708474Y-88982600D01*
X160296726Y-88982600D01*
X159916320Y-89140169D01*
X159625169Y-89431320D01*
X159467600Y-89811726D01*
X129379383Y-89811726D01*
X129315337Y-89747680D01*
X129108487Y-89662000D01*
X129315337Y-89576320D01*
X129708320Y-89183337D01*
X129921000Y-88669881D01*
X129921000Y-88114119D01*
X129908743Y-88084526D01*
X143922800Y-88084526D01*
X143922800Y-88496274D01*
X144080369Y-88876680D01*
X144371520Y-89167831D01*
X144751926Y-89325400D01*
X145163674Y-89325400D01*
X145544080Y-89167831D01*
X145835231Y-88876680D01*
X145992800Y-88496274D01*
X145992800Y-88294846D01*
X146613247Y-87674400D01*
X146840074Y-87674400D01*
X147220480Y-87516831D01*
X147511631Y-87225680D01*
X147669200Y-86845274D01*
X147669200Y-86433526D01*
X147511631Y-86053120D01*
X147220480Y-85761969D01*
X146840074Y-85604400D01*
X146428326Y-85604400D01*
X146047920Y-85761969D01*
X145756769Y-86053120D01*
X145599200Y-86433526D01*
X145599200Y-86609553D01*
X144953354Y-87255400D01*
X144751926Y-87255400D01*
X144371520Y-87412969D01*
X144080369Y-87704120D01*
X143922800Y-88084526D01*
X129908743Y-88084526D01*
X129708320Y-87600663D01*
X129315337Y-87207680D01*
X129108487Y-87122000D01*
X129315337Y-87036320D01*
X129708320Y-86643337D01*
X129921000Y-86129881D01*
X129921000Y-85574119D01*
X129866659Y-85442926D01*
X170491200Y-85442926D01*
X170491200Y-85854674D01*
X170648769Y-86235080D01*
X170939920Y-86526231D01*
X171320326Y-86683800D01*
X171732074Y-86683800D01*
X172112480Y-86526231D01*
X172403631Y-86235080D01*
X172561200Y-85854674D01*
X172561200Y-85653247D01*
X172642537Y-85571910D01*
X172703905Y-85530905D01*
X172866354Y-85287783D01*
X172909000Y-85073388D01*
X172923399Y-85001000D01*
X172909000Y-84928612D01*
X172909000Y-83739563D01*
X173059680Y-84103337D01*
X173452663Y-84496320D01*
X173659513Y-84582000D01*
X173452663Y-84667680D01*
X173059680Y-85060663D01*
X172847000Y-85574119D01*
X172847000Y-86129881D01*
X173059680Y-86643337D01*
X173452663Y-87036320D01*
X173659513Y-87122000D01*
X173452663Y-87207680D01*
X173059680Y-87600663D01*
X172847000Y-88114119D01*
X172847000Y-88669881D01*
X173059680Y-89183337D01*
X173452663Y-89576320D01*
X173659513Y-89662000D01*
X173452663Y-89747680D01*
X173059680Y-90140663D01*
X172847000Y-90654119D01*
X172847000Y-91209881D01*
X173059680Y-91723337D01*
X173452663Y-92116320D01*
X173659513Y-92202000D01*
X173452663Y-92287680D01*
X173059680Y-92680663D01*
X172847000Y-93194119D01*
X172847000Y-93749881D01*
X173059680Y-94263337D01*
X173452663Y-94656320D01*
X173659513Y-94742000D01*
X173452663Y-94827680D01*
X173059680Y-95220663D01*
X172847000Y-95734119D01*
X172847000Y-96289881D01*
X173059680Y-96803337D01*
X173452663Y-97196320D01*
X173659513Y-97282000D01*
X173452663Y-97367680D01*
X173059680Y-97760663D01*
X172847000Y-98274119D01*
X172847000Y-98829881D01*
X173059680Y-99343337D01*
X173452663Y-99736320D01*
X173659513Y-99822000D01*
X173452663Y-99907680D01*
X173059680Y-100300663D01*
X172847000Y-100814119D01*
X172847000Y-101369881D01*
X173059680Y-101883337D01*
X173452663Y-102276320D01*
X173659513Y-102362000D01*
X173452663Y-102447680D01*
X173059680Y-102840663D01*
X172847000Y-103354119D01*
X172847000Y-103909881D01*
X173059680Y-104423337D01*
X173452663Y-104816320D01*
X173966119Y-105029000D01*
X174521881Y-105029000D01*
X175035337Y-104816320D01*
X175428320Y-104423337D01*
X175641000Y-103909881D01*
X175641000Y-103354119D01*
X175428320Y-102840663D01*
X175035337Y-102447680D01*
X174828487Y-102362000D01*
X175035337Y-102276320D01*
X175428320Y-101883337D01*
X175641000Y-101369881D01*
X175641000Y-100814119D01*
X175428320Y-100300663D01*
X175035337Y-99907680D01*
X174828487Y-99822000D01*
X175035337Y-99736320D01*
X175428320Y-99343337D01*
X175641000Y-98829881D01*
X175641000Y-98274119D01*
X175428320Y-97760663D01*
X175035337Y-97367680D01*
X174828487Y-97282000D01*
X175035337Y-97196320D01*
X175428320Y-96803337D01*
X175641000Y-96289881D01*
X175641000Y-95734119D01*
X175428320Y-95220663D01*
X175035337Y-94827680D01*
X174828487Y-94742000D01*
X175035337Y-94656320D01*
X175428320Y-94263337D01*
X175641000Y-93749881D01*
X175641000Y-93194119D01*
X175428320Y-92680663D01*
X175035337Y-92287680D01*
X174828487Y-92202000D01*
X175035337Y-92116320D01*
X175428320Y-91723337D01*
X175641000Y-91209881D01*
X175641000Y-90654119D01*
X175428320Y-90140663D01*
X175035337Y-89747680D01*
X174828487Y-89662000D01*
X175035337Y-89576320D01*
X175428320Y-89183337D01*
X175641000Y-88669881D01*
X175641000Y-88114119D01*
X175428320Y-87600663D01*
X175035337Y-87207680D01*
X174828487Y-87122000D01*
X175035337Y-87036320D01*
X175428320Y-86643337D01*
X175641000Y-86129881D01*
X175641000Y-85574119D01*
X175428320Y-85060663D01*
X175035337Y-84667680D01*
X174828487Y-84582000D01*
X175035337Y-84496320D01*
X175428320Y-84103337D01*
X175641000Y-83589881D01*
X175641000Y-83034119D01*
X175428320Y-82520663D01*
X175035337Y-82127680D01*
X174844353Y-82048572D01*
X174975143Y-81994397D01*
X175044608Y-81752213D01*
X174244000Y-80951605D01*
X173443392Y-81752213D01*
X173512857Y-81994397D01*
X173653393Y-82044535D01*
X173452663Y-82127680D01*
X173059680Y-82520663D01*
X172909000Y-82884437D01*
X172909000Y-81231296D01*
X173021603Y-81503143D01*
X173263787Y-81572608D01*
X174064395Y-80772000D01*
X174423605Y-80772000D01*
X175224213Y-81572608D01*
X175466397Y-81503143D01*
X175653144Y-80979698D01*
X175625362Y-80424632D01*
X175466397Y-80040857D01*
X175224213Y-79971392D01*
X174423605Y-80772000D01*
X174064395Y-80772000D01*
X173263787Y-79971392D01*
X173021603Y-80040857D01*
X172909000Y-80356479D01*
X172909000Y-79791787D01*
X173443392Y-79791787D01*
X174244000Y-80592395D01*
X175044608Y-79791787D01*
X174975143Y-79549603D01*
X174451698Y-79362856D01*
X173896632Y-79390638D01*
X173512857Y-79549603D01*
X173443392Y-79791787D01*
X172909000Y-79791787D01*
X172909000Y-74486446D01*
X174388447Y-73007000D01*
X174589874Y-73007000D01*
X174970280Y-72849431D01*
X175261431Y-72558280D01*
X175419000Y-72177874D01*
X175419000Y-71766126D01*
X175261431Y-71385720D01*
X174970280Y-71094569D01*
X174589874Y-70937000D01*
X174178126Y-70937000D01*
X173797720Y-71094569D01*
X173506569Y-71385720D01*
X173349000Y-71766126D01*
X173349000Y-71967553D01*
X171705465Y-73611089D01*
X171644095Y-73652095D01*
X171481646Y-73895218D01*
X171439000Y-74109613D01*
X171439000Y-74109616D01*
X171424602Y-74182000D01*
X171439000Y-74254384D01*
X171439001Y-84613800D01*
X171320326Y-84613800D01*
X170939920Y-84771369D01*
X170648769Y-85062520D01*
X170491200Y-85442926D01*
X129866659Y-85442926D01*
X129708320Y-85060663D01*
X129315337Y-84667680D01*
X129108487Y-84582000D01*
X129315337Y-84496320D01*
X129708320Y-84103337D01*
X129921000Y-83589881D01*
X129921000Y-83034119D01*
X129708320Y-82520663D01*
X129315337Y-82127680D01*
X129108487Y-82042000D01*
X129315337Y-81956320D01*
X129708320Y-81563337D01*
X129921000Y-81049881D01*
X129921000Y-80494119D01*
X129708320Y-79980663D01*
X129315337Y-79587680D01*
X128801881Y-79375000D01*
X128246119Y-79375000D01*
X127732663Y-79587680D01*
X127339680Y-79980663D01*
X127127000Y-80494119D01*
X127127000Y-81049881D01*
X127339680Y-81563337D01*
X127732663Y-81956320D01*
X127939513Y-82042000D01*
X127732663Y-82127680D01*
X127517080Y-82343263D01*
X126789000Y-81615184D01*
X126789000Y-79325467D01*
X126803399Y-79253080D01*
X126789000Y-79180692D01*
X126789000Y-77210711D01*
X126931431Y-77068280D01*
X127047041Y-76789172D01*
X130389330Y-76789172D01*
X130389330Y-77200920D01*
X130546899Y-77581326D01*
X130838050Y-77872477D01*
X131218456Y-78030046D01*
X131630204Y-78030046D01*
X132010610Y-77872477D01*
X132153041Y-77730046D01*
X132390964Y-77730046D01*
X132417778Y-77794782D01*
X132708929Y-78085933D01*
X133089335Y-78243502D01*
X133501083Y-78243502D01*
X133881489Y-78085933D01*
X134172640Y-77794782D01*
X134330209Y-77414376D01*
X134330209Y-77002628D01*
X134172640Y-76622222D01*
X133881489Y-76331071D01*
X133501083Y-76173502D01*
X133089335Y-76173502D01*
X132880399Y-76260046D01*
X132153041Y-76260046D01*
X132010610Y-76117615D01*
X131630204Y-75960046D01*
X131218456Y-75960046D01*
X130838050Y-76117615D01*
X130546899Y-76408766D01*
X130389330Y-76789172D01*
X127047041Y-76789172D01*
X127089000Y-76687874D01*
X127089000Y-76276126D01*
X126931431Y-75895720D01*
X126640280Y-75604569D01*
X126259874Y-75447000D01*
X125848126Y-75447000D01*
X125467720Y-75604569D01*
X125176569Y-75895720D01*
X125019000Y-76276126D01*
X125019000Y-76687874D01*
X125176569Y-77068280D01*
X125319001Y-77210712D01*
X125319000Y-78518080D01*
X125056631Y-78518080D01*
X124939600Y-78401049D01*
X124559194Y-78243480D01*
X124147446Y-78243480D01*
X123767040Y-78401049D01*
X123475889Y-78692200D01*
X123318320Y-79072606D01*
X123318320Y-79484354D01*
X123475889Y-79864760D01*
X123767040Y-80155911D01*
X124147446Y-80313480D01*
X124559194Y-80313480D01*
X124939600Y-80155911D01*
X125107431Y-79988080D01*
X125319001Y-79988080D01*
X125319000Y-81545602D01*
X125301136Y-81572338D01*
X125244092Y-81859120D01*
X125301136Y-82145902D01*
X125463585Y-82389025D01*
X125524955Y-82430031D01*
X126875460Y-83780537D01*
X126916465Y-83841905D01*
X127159587Y-84004354D01*
X127311169Y-84034506D01*
X127339680Y-84103337D01*
X127732663Y-84496320D01*
X127939513Y-84582000D01*
X127732663Y-84667680D01*
X127339680Y-85060663D01*
X127127000Y-85574119D01*
X127127000Y-86129881D01*
X127150335Y-86186218D01*
X125501754Y-87834800D01*
X125040384Y-87834800D01*
X124968000Y-87820402D01*
X124895616Y-87834800D01*
X117068247Y-87834800D01*
X114460505Y-85227059D01*
X114657000Y-84752678D01*
X114657000Y-83903322D01*
X114331966Y-83118620D01*
X113731380Y-82518034D01*
X112946678Y-82193000D01*
X112097322Y-82193000D01*
X111312620Y-82518034D01*
X110712034Y-83118620D01*
X110387000Y-83903322D01*
X109905000Y-83903322D01*
X109905000Y-77807322D01*
X110387000Y-77807322D01*
X110387000Y-78656678D01*
X110712034Y-79441380D01*
X111312620Y-80041966D01*
X112097322Y-80367000D01*
X112946678Y-80367000D01*
X113731380Y-80041966D01*
X114331966Y-79441380D01*
X114657000Y-78656678D01*
X114657000Y-77807322D01*
X114331966Y-77022620D01*
X113731380Y-76422034D01*
X112946678Y-76097000D01*
X112097322Y-76097000D01*
X111312620Y-76422034D01*
X110712034Y-77022620D01*
X110387000Y-77807322D01*
X109905000Y-77807322D01*
X109905000Y-74470126D01*
X120453200Y-74470126D01*
X120453200Y-74881874D01*
X120610769Y-75262280D01*
X120901920Y-75553431D01*
X121282326Y-75711000D01*
X121694074Y-75711000D01*
X122074480Y-75553431D01*
X122365631Y-75262280D01*
X122517296Y-74896126D01*
X167699000Y-74896126D01*
X167699000Y-75307874D01*
X167856569Y-75688280D01*
X168147720Y-75979431D01*
X168528126Y-76137000D01*
X168939874Y-76137000D01*
X169320280Y-75979431D01*
X169611431Y-75688280D01*
X169769000Y-75307874D01*
X169769000Y-74896126D01*
X169611431Y-74515720D01*
X169469000Y-74373289D01*
X169469000Y-72286446D01*
X169898447Y-71857000D01*
X170099874Y-71857000D01*
X170480280Y-71699431D01*
X170771431Y-71408280D01*
X170929000Y-71027874D01*
X170929000Y-70616126D01*
X170771431Y-70235720D01*
X170480280Y-69944569D01*
X170099874Y-69787000D01*
X169688126Y-69787000D01*
X169307720Y-69944569D01*
X169016569Y-70235720D01*
X168859000Y-70616126D01*
X168859000Y-70817553D01*
X168265463Y-71411091D01*
X168204096Y-71452095D01*
X168163092Y-71513462D01*
X168163091Y-71513463D01*
X168041646Y-71695218D01*
X167984602Y-71982000D01*
X167999001Y-72054389D01*
X167999000Y-73254387D01*
X167999001Y-73254392D01*
X167999000Y-74373289D01*
X167856569Y-74515720D01*
X167699000Y-74896126D01*
X122517296Y-74896126D01*
X122523200Y-74881874D01*
X122523200Y-74470126D01*
X122365631Y-74089720D01*
X122274000Y-73998089D01*
X122274000Y-72946126D01*
X130333800Y-72946126D01*
X130333800Y-73357874D01*
X130491369Y-73738280D01*
X130782520Y-74029431D01*
X131162926Y-74187000D01*
X131574674Y-74187000D01*
X131955080Y-74029431D01*
X132097511Y-73887000D01*
X133719639Y-73887000D01*
X133930601Y-73974383D01*
X134342349Y-73974383D01*
X134722755Y-73816814D01*
X135013906Y-73525663D01*
X135171475Y-73145257D01*
X135171475Y-72733509D01*
X135013906Y-72353103D01*
X134722755Y-72061952D01*
X134342349Y-71904383D01*
X133930601Y-71904383D01*
X133550195Y-72061952D01*
X133259044Y-72353103D01*
X133232577Y-72417000D01*
X132097511Y-72417000D01*
X131955080Y-72274569D01*
X131574674Y-72117000D01*
X131162926Y-72117000D01*
X130782520Y-72274569D01*
X130491369Y-72565720D01*
X130333800Y-72946126D01*
X122274000Y-72946126D01*
X122274000Y-71191346D01*
X122742620Y-71659966D01*
X123527322Y-71985000D01*
X124376678Y-71985000D01*
X125161380Y-71659966D01*
X125761966Y-71059380D01*
X126087000Y-70274678D01*
X126087000Y-69425322D01*
X125761966Y-68640620D01*
X125161380Y-68040034D01*
X124376678Y-67715000D01*
X123527322Y-67715000D01*
X122742620Y-68040034D01*
X122274000Y-68508654D01*
X122274000Y-64967285D01*
X122381746Y-64859539D01*
X122539315Y-64479133D01*
X122539315Y-64067385D01*
X122381746Y-63686979D01*
X122090595Y-63395828D01*
X121710189Y-63238259D01*
X121298441Y-63238259D01*
X120918035Y-63395828D01*
X120626884Y-63686979D01*
X120469315Y-64067385D01*
X120469315Y-64479133D01*
X120626884Y-64859539D01*
X120804001Y-65036656D01*
X120804000Y-71276212D01*
X120804000Y-71276213D01*
X120804001Y-73896488D01*
X120610769Y-74089720D01*
X120453200Y-74470126D01*
X109905000Y-74470126D01*
X109905000Y-66242670D01*
X112511000Y-66242670D01*
X112511000Y-66853330D01*
X112744690Y-67417507D01*
X113176493Y-67849310D01*
X113740670Y-68083000D01*
X114351330Y-68083000D01*
X114915507Y-67849310D01*
X115347310Y-67417507D01*
X115355438Y-67397885D01*
X115505841Y-67448554D01*
X116406395Y-66548000D01*
X115505841Y-65647446D01*
X115355438Y-65698115D01*
X115347310Y-65678493D01*
X115136658Y-65467841D01*
X115685446Y-65467841D01*
X116586000Y-66368395D01*
X116600143Y-66354253D01*
X116779748Y-66533858D01*
X116765605Y-66548000D01*
X116779748Y-66562143D01*
X116600143Y-66741748D01*
X116586000Y-66727605D01*
X115685446Y-67628159D01*
X115771852Y-67884643D01*
X116345336Y-68094458D01*
X116955460Y-68068839D01*
X117400148Y-67884643D01*
X117486553Y-67628161D01*
X117601110Y-67742718D01*
X117635942Y-67707886D01*
X117768191Y-67905809D01*
X117978235Y-68046157D01*
X118226000Y-68095440D01*
X120026000Y-68095440D01*
X120273765Y-68046157D01*
X120483809Y-67905809D01*
X120624157Y-67695765D01*
X120673440Y-67448000D01*
X120673440Y-65648000D01*
X120624157Y-65400235D01*
X120483809Y-65190191D01*
X120273765Y-65049843D01*
X120026000Y-65000560D01*
X118226000Y-65000560D01*
X117978235Y-65049843D01*
X117768191Y-65190191D01*
X117635942Y-65388114D01*
X117601110Y-65353282D01*
X117486553Y-65467839D01*
X117400148Y-65211357D01*
X116826664Y-65001542D01*
X116216540Y-65027161D01*
X115771852Y-65211357D01*
X115685446Y-65467841D01*
X115136658Y-65467841D01*
X114915507Y-65246690D01*
X114351330Y-65013000D01*
X113740670Y-65013000D01*
X113176493Y-65246690D01*
X112744690Y-65678493D01*
X112511000Y-66242670D01*
X109905000Y-66242670D01*
X109905000Y-65152287D01*
X110131726Y-65246200D01*
X110543474Y-65246200D01*
X110923880Y-65088631D01*
X111215031Y-64797480D01*
X111372600Y-64417074D01*
X111372600Y-64005326D01*
X111215031Y-63624920D01*
X111072600Y-63482489D01*
X111072600Y-59623814D01*
X118723714Y-59623814D01*
X118738130Y-59696215D01*
X118998026Y-60174369D01*
X119421120Y-60516668D01*
X119943000Y-60671000D01*
X120697000Y-60671000D01*
X120697000Y-59409000D01*
X120951000Y-59409000D01*
X120951000Y-60671000D01*
X121705000Y-60671000D01*
X122092186Y-60556500D01*
X171491060Y-60556500D01*
X171491060Y-62207500D01*
X171540343Y-62455265D01*
X171680691Y-62665309D01*
X171890735Y-62805657D01*
X171994287Y-62826254D01*
X171725848Y-63094693D01*
X171503500Y-63631488D01*
X171503500Y-64212512D01*
X171725848Y-64749307D01*
X172136693Y-65160152D01*
X172673488Y-65382500D01*
X173254512Y-65382500D01*
X173791307Y-65160152D01*
X174202152Y-64749307D01*
X174234000Y-64672419D01*
X174265848Y-64749307D01*
X174676693Y-65160152D01*
X175213488Y-65382500D01*
X175794512Y-65382500D01*
X176331307Y-65160152D01*
X176742152Y-64749307D01*
X176964500Y-64212512D01*
X176964500Y-63631488D01*
X176742152Y-63094693D01*
X176331307Y-62683848D01*
X176254419Y-62652000D01*
X176331307Y-62620152D01*
X176742152Y-62209307D01*
X176964500Y-61672512D01*
X176964500Y-61091488D01*
X176742152Y-60554693D01*
X176331307Y-60143848D01*
X175794512Y-59921500D01*
X175213488Y-59921500D01*
X174676693Y-60143848D01*
X174408254Y-60412287D01*
X174387657Y-60308735D01*
X174247309Y-60098691D01*
X174037265Y-59958343D01*
X173789500Y-59909060D01*
X172138500Y-59909060D01*
X171890735Y-59958343D01*
X171680691Y-60098691D01*
X171540343Y-60308735D01*
X171491060Y-60556500D01*
X122092186Y-60556500D01*
X122226880Y-60516668D01*
X122649974Y-60174369D01*
X122909870Y-59696215D01*
X122924286Y-59623814D01*
X122801677Y-59409000D01*
X120951000Y-59409000D01*
X120697000Y-59409000D01*
X118846323Y-59409000D01*
X118723714Y-59623814D01*
X111072600Y-59623814D01*
X111072600Y-58940186D01*
X118723714Y-58940186D01*
X118846323Y-59155000D01*
X120697000Y-59155000D01*
X120697000Y-57893000D01*
X120951000Y-57893000D01*
X120951000Y-59155000D01*
X122801677Y-59155000D01*
X122924286Y-58940186D01*
X122909870Y-58867785D01*
X122649974Y-58389631D01*
X122226880Y-58047332D01*
X121705000Y-57893000D01*
X120951000Y-57893000D01*
X120697000Y-57893000D01*
X119943000Y-57893000D01*
X119421120Y-58047332D01*
X118998026Y-58389631D01*
X118738130Y-58867785D01*
X118723714Y-58940186D01*
X111072600Y-58940186D01*
X111072600Y-56502846D01*
X112388447Y-55187000D01*
X112589874Y-55187000D01*
X112970280Y-55029431D01*
X113261431Y-54738280D01*
X113273559Y-54709000D01*
X116435000Y-54709000D01*
X116435000Y-55463000D01*
X116589332Y-55984880D01*
X116931631Y-56407974D01*
X117409785Y-56667870D01*
X117482186Y-56682286D01*
X117697000Y-56559677D01*
X117697000Y-54709000D01*
X117951000Y-54709000D01*
X117951000Y-56559677D01*
X118165814Y-56682286D01*
X118238215Y-56667870D01*
X118716369Y-56407974D01*
X119058668Y-55984880D01*
X119213000Y-55463000D01*
X119213000Y-54709000D01*
X117951000Y-54709000D01*
X117697000Y-54709000D01*
X116435000Y-54709000D01*
X113273559Y-54709000D01*
X113419000Y-54357874D01*
X113419000Y-53946126D01*
X113317466Y-53701000D01*
X116435000Y-53701000D01*
X116435000Y-54455000D01*
X117697000Y-54455000D01*
X117697000Y-52604323D01*
X117951000Y-52604323D01*
X117951000Y-54455000D01*
X119213000Y-54455000D01*
X119213000Y-53701000D01*
X119210101Y-53691196D01*
X122435000Y-53691196D01*
X122435000Y-55472803D01*
X122515591Y-55877960D01*
X122822587Y-56337412D01*
X123282039Y-56644409D01*
X123824000Y-56752212D01*
X124365960Y-56644409D01*
X124825412Y-56337413D01*
X125132409Y-55877961D01*
X125213000Y-55472804D01*
X125213000Y-53691196D01*
X125132409Y-53286039D01*
X124985718Y-53066500D01*
X138071060Y-53066500D01*
X138071060Y-54717500D01*
X138120343Y-54965265D01*
X138260691Y-55175309D01*
X138470735Y-55315657D01*
X138718500Y-55364940D01*
X140369500Y-55364940D01*
X140617265Y-55315657D01*
X140827309Y-55175309D01*
X140967657Y-54965265D01*
X140988254Y-54861713D01*
X141256693Y-55130152D01*
X141793488Y-55352500D01*
X142374512Y-55352500D01*
X142911307Y-55130152D01*
X143322152Y-54719307D01*
X143544500Y-54182512D01*
X143544500Y-54103000D01*
X174145560Y-54103000D01*
X174145560Y-56053000D01*
X174194843Y-56300765D01*
X174335191Y-56510809D01*
X174545235Y-56651157D01*
X174793000Y-56700440D01*
X176743000Y-56700440D01*
X176990765Y-56651157D01*
X177200809Y-56510809D01*
X177341157Y-56300765D01*
X177390440Y-56053000D01*
X177390440Y-54103000D01*
X177341157Y-53855235D01*
X177200809Y-53645191D01*
X176990765Y-53504843D01*
X176743000Y-53455560D01*
X174793000Y-53455560D01*
X174545235Y-53504843D01*
X174335191Y-53645191D01*
X174194843Y-53855235D01*
X174145560Y-54103000D01*
X143544500Y-54103000D01*
X143544500Y-53601488D01*
X143322152Y-53064693D01*
X142911307Y-52653848D01*
X142834419Y-52622000D01*
X142911307Y-52590152D01*
X143322152Y-52179307D01*
X143544500Y-51642512D01*
X143544500Y-51061488D01*
X143322152Y-50524693D01*
X142911307Y-50113848D01*
X142374512Y-49891500D01*
X141793488Y-49891500D01*
X141256693Y-50113848D01*
X140845848Y-50524693D01*
X140814000Y-50601581D01*
X140782152Y-50524693D01*
X140371307Y-50113848D01*
X139834512Y-49891500D01*
X139253488Y-49891500D01*
X138716693Y-50113848D01*
X138305848Y-50524693D01*
X138083500Y-51061488D01*
X138083500Y-51642512D01*
X138305848Y-52179307D01*
X138574287Y-52447746D01*
X138470735Y-52468343D01*
X138260691Y-52608691D01*
X138120343Y-52818735D01*
X138071060Y-53066500D01*
X124985718Y-53066500D01*
X124825413Y-52826587D01*
X124365961Y-52519591D01*
X123824000Y-52411788D01*
X123282040Y-52519591D01*
X122822588Y-52826587D01*
X122515592Y-53286039D01*
X122435000Y-53691196D01*
X119210101Y-53691196D01*
X119058668Y-53179120D01*
X118716369Y-52756026D01*
X118238215Y-52496130D01*
X118165814Y-52481714D01*
X117951000Y-52604323D01*
X117697000Y-52604323D01*
X117482186Y-52481714D01*
X117409785Y-52496130D01*
X116931631Y-52756026D01*
X116589332Y-53179120D01*
X116435000Y-53701000D01*
X113317466Y-53701000D01*
X113261431Y-53565720D01*
X112970280Y-53274569D01*
X112589874Y-53117000D01*
X112178126Y-53117000D01*
X111797720Y-53274569D01*
X111506569Y-53565720D01*
X111349000Y-53946126D01*
X111349000Y-54147553D01*
X109905000Y-55591554D01*
X109905000Y-46405000D01*
X135277818Y-46405000D01*
X135251240Y-46469166D01*
X135251240Y-46469166D01*
G37*
X135251240Y-46469166D02*
X135251240Y-46880914D01*
X135408809Y-47261320D01*
X135699960Y-47552471D01*
X136080366Y-47710040D01*
X136268964Y-47710040D01*
X136365217Y-47774354D01*
X136579612Y-47817000D01*
X136579616Y-47817000D01*
X136652000Y-47831398D01*
X136724384Y-47817000D01*
X144329001Y-47817000D01*
X144329000Y-49253289D01*
X144186569Y-49395720D01*
X144029000Y-49776126D01*
X144029000Y-50187874D01*
X144186569Y-50568280D01*
X144477720Y-50859431D01*
X144858126Y-51017000D01*
X145269874Y-51017000D01*
X145650280Y-50859431D01*
X145941431Y-50568280D01*
X146059928Y-50282200D01*
X146880560Y-50282200D01*
X146880560Y-52232200D01*
X146929843Y-52479965D01*
X147070191Y-52690009D01*
X147280235Y-52830357D01*
X147528000Y-52879640D01*
X149478000Y-52879640D01*
X149725765Y-52830357D01*
X149935809Y-52690009D01*
X150076157Y-52479965D01*
X150093725Y-52391642D01*
X152548163Y-52391642D01*
X152643763Y-52655904D01*
X153244429Y-52878249D01*
X153884461Y-52853805D01*
X154362237Y-52655904D01*
X154457837Y-52391642D01*
X153503000Y-51436805D01*
X152548163Y-52391642D01*
X150093725Y-52391642D01*
X150125440Y-52232200D01*
X150125440Y-50998629D01*
X151881951Y-50998629D01*
X151906395Y-51638661D01*
X152104296Y-52116437D01*
X152368558Y-52212037D01*
X153323395Y-51257200D01*
X153682605Y-51257200D01*
X154637442Y-52212037D01*
X154901704Y-52116437D01*
X155124049Y-51515771D01*
X155099605Y-50875739D01*
X154901704Y-50397963D01*
X154637442Y-50302363D01*
X153682605Y-51257200D01*
X153323395Y-51257200D01*
X152368558Y-50302363D01*
X152104296Y-50397963D01*
X151881951Y-50998629D01*
X150125440Y-50998629D01*
X150125440Y-50282200D01*
X150093726Y-50122758D01*
X152548163Y-50122758D01*
X153503000Y-51077595D01*
X154457837Y-50122758D01*
X154451956Y-50106500D01*
X157801060Y-50106500D01*
X157801060Y-51757500D01*
X157850343Y-52005265D01*
X157990691Y-52215309D01*
X158200735Y-52355657D01*
X158448500Y-52404940D01*
X160099500Y-52404940D01*
X160347265Y-52355657D01*
X160557309Y-52215309D01*
X160697657Y-52005265D01*
X160718254Y-51901713D01*
X160986693Y-52170152D01*
X161523488Y-52392500D01*
X162104512Y-52392500D01*
X162641307Y-52170152D01*
X163052152Y-51759307D01*
X163274500Y-51222512D01*
X163274500Y-51212442D01*
X174813163Y-51212442D01*
X174908763Y-51476704D01*
X175509429Y-51699049D01*
X176149461Y-51674605D01*
X176627237Y-51476704D01*
X176722837Y-51212442D01*
X175768000Y-50257605D01*
X174813163Y-51212442D01*
X163274500Y-51212442D01*
X163274500Y-50641488D01*
X163052152Y-50104693D01*
X162766888Y-49819429D01*
X174146951Y-49819429D01*
X174171395Y-50459461D01*
X174369296Y-50937237D01*
X174633558Y-51032837D01*
X175588395Y-50078000D01*
X175947605Y-50078000D01*
X176902442Y-51032837D01*
X177166704Y-50937237D01*
X177389049Y-50336571D01*
X177364605Y-49696539D01*
X177166704Y-49218763D01*
X176902442Y-49123163D01*
X175947605Y-50078000D01*
X175588395Y-50078000D01*
X174633558Y-49123163D01*
X174369296Y-49218763D01*
X174146951Y-49819429D01*
X162766888Y-49819429D01*
X162641307Y-49693848D01*
X162564419Y-49662000D01*
X162641307Y-49630152D01*
X163052152Y-49219307D01*
X163166371Y-48943558D01*
X174813163Y-48943558D01*
X175768000Y-49898395D01*
X176722837Y-48943558D01*
X176627237Y-48679296D01*
X176026571Y-48456951D01*
X175386539Y-48481395D01*
X174908763Y-48679296D01*
X174813163Y-48943558D01*
X163166371Y-48943558D01*
X163274500Y-48682512D01*
X163274500Y-48101488D01*
X163052152Y-47564693D01*
X162641307Y-47153848D01*
X162104512Y-46931500D01*
X161523488Y-46931500D01*
X160986693Y-47153848D01*
X160575848Y-47564693D01*
X160544000Y-47641581D01*
X160512152Y-47564693D01*
X160101307Y-47153848D01*
X159564512Y-46931500D01*
X158983488Y-46931500D01*
X158446693Y-47153848D01*
X158035848Y-47564693D01*
X157813500Y-48101488D01*
X157813500Y-48682512D01*
X158035848Y-49219307D01*
X158304287Y-49487746D01*
X158200735Y-49508343D01*
X157990691Y-49648691D01*
X157850343Y-49858735D01*
X157801060Y-50106500D01*
X154451956Y-50106500D01*
X154362237Y-49858496D01*
X153761571Y-49636151D01*
X153121539Y-49660595D01*
X152643763Y-49858496D01*
X152548163Y-50122758D01*
X150093726Y-50122758D01*
X150076157Y-50034435D01*
X149935809Y-49824391D01*
X149725765Y-49684043D01*
X149478000Y-49634760D01*
X147528000Y-49634760D01*
X147280235Y-49684043D01*
X147070191Y-49824391D01*
X146929843Y-50034435D01*
X146880560Y-50282200D01*
X146059928Y-50282200D01*
X146099000Y-50187874D01*
X146099000Y-49776126D01*
X145941431Y-49395720D01*
X145799000Y-49253289D01*
X145799000Y-47294384D01*
X145813398Y-47222000D01*
X145799000Y-47149616D01*
X145799000Y-47149612D01*
X145756354Y-46935217D01*
X145593905Y-46692095D01*
X145532535Y-46651089D01*
X145494911Y-46613465D01*
X145453905Y-46552095D01*
X145233762Y-46405000D01*
X180163001Y-46405000D01*
X180163000Y-111075000D01*
X109905000Y-111075000D01*
X109905000Y-108353726D01*
X146107200Y-108353726D01*
X146107200Y-108765474D01*
X146264769Y-109145880D01*
X146555920Y-109437031D01*
X146936326Y-109594600D01*
X147348074Y-109594600D01*
X147728480Y-109437031D01*
X147870911Y-109294600D01*
X150995879Y-109294600D01*
X151102520Y-109401241D01*
X151482926Y-109558810D01*
X151894674Y-109558810D01*
X152275080Y-109401241D01*
X152566231Y-109110090D01*
X152723800Y-108729684D01*
X152723800Y-108317936D01*
X152650638Y-108141308D01*
X152794946Y-107997000D01*
X152996374Y-107997000D01*
X153376780Y-107839431D01*
X153667931Y-107548280D01*
X153825500Y-107167874D01*
X153825500Y-106756126D01*
X153667931Y-106375720D01*
X153376780Y-106084569D01*
X152996374Y-105927000D01*
X152584626Y-105927000D01*
X152204220Y-106084569D01*
X151913069Y-106375720D01*
X151755500Y-106756126D01*
X151755500Y-106957554D01*
X151574254Y-107138800D01*
X149572711Y-107138800D01*
X149430280Y-106996369D01*
X149049874Y-106838800D01*
X148638126Y-106838800D01*
X148257720Y-106996369D01*
X147966569Y-107287520D01*
X147809000Y-107667926D01*
X147809000Y-107762689D01*
X147728480Y-107682169D01*
X147348074Y-107524600D01*
X146936326Y-107524600D01*
X146555920Y-107682169D01*
X146264769Y-107973320D01*
X146107200Y-108353726D01*
X109905000Y-108353726D01*
X109905000Y-89999322D01*
X110387000Y-89999322D01*
X110387000Y-90848678D01*
X110712034Y-91633380D01*
X111312620Y-92233966D01*
X112097322Y-92559000D01*
X112946678Y-92559000D01*
X113731380Y-92233966D01*
X114331966Y-91633380D01*
X114657000Y-90848678D01*
X114657000Y-89999322D01*
X114331966Y-89214620D01*
X113731380Y-88614034D01*
X112946678Y-88289000D01*
X112097322Y-88289000D01*
X111312620Y-88614034D01*
X110712034Y-89214620D01*
X110387000Y-89999322D01*
X109905000Y-89999322D01*
X109905000Y-83903322D01*
X110387000Y-83903322D01*
X110387000Y-84752678D01*
X110712034Y-85537380D01*
X111312620Y-86137966D01*
X112097322Y-86463000D01*
X112946678Y-86463000D01*
X113421059Y-86266505D01*
X116192890Y-89038337D01*
X116233895Y-89099705D01*
X116477017Y-89262154D01*
X116691412Y-89304800D01*
X116691415Y-89304800D01*
X116763799Y-89319198D01*
X116836183Y-89304800D01*
X124846481Y-89304800D01*
X124975976Y-89330558D01*
X118952310Y-89330558D01*
X118879922Y-89316159D01*
X118807534Y-89330558D01*
X118593139Y-89373204D01*
X118569499Y-89389000D01*
X118315606Y-89389000D01*
X117935200Y-89546569D01*
X117644049Y-89837720D01*
X117486480Y-90218126D01*
X117486480Y-90629874D01*
X117644049Y-91010280D01*
X117935200Y-91301431D01*
X118315606Y-91459000D01*
X118727354Y-91459000D01*
X119107760Y-91301431D01*
X119398911Y-91010280D01*
X119485781Y-90800558D01*
X126778058Y-90800558D01*
X126850442Y-90814956D01*
X126922826Y-90800558D01*
X126922830Y-90800558D01*
X127127000Y-90759946D01*
X127127000Y-91209881D01*
X127339680Y-91723337D01*
X127732663Y-92116320D01*
X127939513Y-92202000D01*
X127732663Y-92287680D01*
X127339680Y-92680663D01*
X127127000Y-93194119D01*
X127127000Y-93749881D01*
X127339680Y-94263337D01*
X127732663Y-94656320D01*
X127939513Y-94742000D01*
X127732663Y-94827680D01*
X127339680Y-95220663D01*
X127127000Y-95734119D01*
X127127000Y-96289881D01*
X127339680Y-96803337D01*
X127732663Y-97196320D01*
X127939513Y-97282000D01*
X127732663Y-97367680D01*
X127339680Y-97760663D01*
X127127000Y-98274119D01*
X127127000Y-98829881D01*
X127339680Y-99343337D01*
X127732663Y-99736320D01*
X127939513Y-99822000D01*
X127732663Y-99907680D01*
X127339680Y-100300663D01*
X127127000Y-100814119D01*
X127127000Y-101369881D01*
X127339680Y-101883337D01*
X127732663Y-102276320D01*
X127939513Y-102362000D01*
X127732663Y-102447680D01*
X127339680Y-102840663D01*
X127127000Y-103354119D01*
X127127000Y-103909881D01*
X127339680Y-104423337D01*
X127732663Y-104816320D01*
X128246119Y-105029000D01*
X128801881Y-105029000D01*
X129315337Y-104816320D01*
X129708320Y-104423337D01*
X129921000Y-103909881D01*
X129921000Y-103354119D01*
X129708320Y-102840663D01*
X129315337Y-102447680D01*
X129108487Y-102362000D01*
X129315337Y-102276320D01*
X129708320Y-101883337D01*
X129921000Y-101369881D01*
X129921000Y-100814119D01*
X129708320Y-100300663D01*
X129315337Y-99907680D01*
X129108487Y-99822000D01*
X129315337Y-99736320D01*
X129708320Y-99343337D01*
X129744443Y-99256126D01*
X140069000Y-99256126D01*
X140069000Y-99667874D01*
X140226569Y-100048280D01*
X140517720Y-100339431D01*
X140898126Y-100497000D01*
X141309874Y-100497000D01*
X141690280Y-100339431D01*
X141832711Y-100197000D01*
X143099554Y-100197000D01*
X147599751Y-104697198D01*
X147640755Y-104758565D01*
X147883877Y-104921014D01*
X148098272Y-104963660D01*
X148098275Y-104963660D01*
X148170659Y-104978058D01*
X148243043Y-104963660D01*
X154175289Y-104963660D01*
X154317720Y-105106091D01*
X154698126Y-105263660D01*
X155109874Y-105263660D01*
X155490280Y-105106091D01*
X155781431Y-104814940D01*
X155939000Y-104434534D01*
X155939000Y-104232336D01*
X164689110Y-104232336D01*
X164971264Y-104514490D01*
X165351670Y-104672059D01*
X165763418Y-104672059D01*
X166143824Y-104514490D01*
X166434975Y-104223339D01*
X166592544Y-103842933D01*
X166592544Y-103431185D01*
X166434975Y-103050779D01*
X166143824Y-102759628D01*
X165763418Y-102602059D01*
X165351670Y-102602059D01*
X164971264Y-102759628D01*
X164968556Y-102762336D01*
X149029681Y-102762336D01*
X148164345Y-101897000D01*
X148559874Y-101897000D01*
X148940280Y-101739431D01*
X149082711Y-101597000D01*
X158481616Y-101597000D01*
X158554000Y-101611398D01*
X158626384Y-101597000D01*
X158626388Y-101597000D01*
X158840783Y-101554354D01*
X159083905Y-101391905D01*
X159124911Y-101330535D01*
X159358446Y-101097000D01*
X159559874Y-101097000D01*
X159940280Y-100939431D01*
X160231431Y-100648280D01*
X160389000Y-100267874D01*
X160389000Y-100160711D01*
X160667720Y-100439431D01*
X161048126Y-100597000D01*
X161459874Y-100597000D01*
X161840280Y-100439431D01*
X162131431Y-100148280D01*
X162289000Y-99767874D01*
X162289000Y-99356126D01*
X162131431Y-98975720D01*
X161840280Y-98684569D01*
X161459874Y-98527000D01*
X161048126Y-98527000D01*
X160667720Y-98684569D01*
X160376569Y-98975720D01*
X160219000Y-99356126D01*
X160219000Y-99463289D01*
X159940280Y-99184569D01*
X159559874Y-99027000D01*
X159148126Y-99027000D01*
X158767720Y-99184569D01*
X158476569Y-99475720D01*
X158319000Y-99856126D01*
X158319000Y-100057554D01*
X158249554Y-100127000D01*
X150128447Y-100127000D01*
X150328538Y-99926909D01*
X150389905Y-99885905D01*
X150552354Y-99642783D01*
X150595000Y-99428388D01*
X150595000Y-99428387D01*
X150609399Y-99356000D01*
X150595000Y-99283612D01*
X150595000Y-95746945D01*
X151575376Y-94766570D01*
X151636743Y-94725566D01*
X151650226Y-94705388D01*
X151670404Y-94691905D01*
X151832853Y-94448783D01*
X151875499Y-94234388D01*
X151875499Y-94234384D01*
X151889897Y-94162000D01*
X151875499Y-94089616D01*
X151875499Y-92597000D01*
X152059874Y-92597000D01*
X152440280Y-92439431D01*
X152731431Y-92148280D01*
X152889000Y-91767874D01*
X152889000Y-91356126D01*
X152731431Y-90975720D01*
X152481837Y-90726126D01*
X155505200Y-90726126D01*
X155505200Y-91137874D01*
X155662769Y-91518280D01*
X155805201Y-91660712D01*
X155805200Y-92870289D01*
X155662769Y-93012720D01*
X155505200Y-93393126D01*
X155505200Y-93804874D01*
X155662769Y-94185280D01*
X155953920Y-94476431D01*
X156334326Y-94634000D01*
X156746074Y-94634000D01*
X157126480Y-94476431D01*
X157417631Y-94185280D01*
X157575200Y-93804874D01*
X157575200Y-93393126D01*
X157417631Y-93012720D01*
X157275200Y-92870289D01*
X157275200Y-91660711D01*
X157417631Y-91518280D01*
X157575200Y-91137874D01*
X157575200Y-90726126D01*
X157417631Y-90345720D01*
X157126480Y-90054569D01*
X156746074Y-89897000D01*
X156334326Y-89897000D01*
X155953920Y-90054569D01*
X155662769Y-90345720D01*
X155505200Y-90726126D01*
X152481837Y-90726126D01*
X152440280Y-90684569D01*
X152059874Y-90527000D01*
X151648126Y-90527000D01*
X151267720Y-90684569D01*
X150976569Y-90975720D01*
X150819000Y-91356126D01*
X150819000Y-91557554D01*
X150671964Y-91704590D01*
X150610594Y-91745596D01*
X150448145Y-91988719D01*
X150405499Y-92203114D01*
X150405499Y-92203117D01*
X150391101Y-92275501D01*
X150405499Y-92347886D01*
X150405500Y-93460661D01*
X146457792Y-93460661D01*
X146340596Y-93343465D01*
X146299590Y-93282095D01*
X146056468Y-93119646D01*
X145955217Y-93099506D01*
X145790280Y-92934569D01*
X145409874Y-92777000D01*
X144998126Y-92777000D01*
X144617720Y-92934569D01*
X144326569Y-93225720D01*
X144169000Y-93606126D01*
X144169000Y-94017874D01*
X144326569Y-94398280D01*
X144617720Y-94689431D01*
X144998126Y-94847000D01*
X145409874Y-94847000D01*
X145653903Y-94745920D01*
X145866563Y-94888015D01*
X146080958Y-94930661D01*
X146153346Y-94945060D01*
X146225734Y-94930661D01*
X149318024Y-94930661D01*
X149289092Y-94973961D01*
X149289091Y-94973962D01*
X149167646Y-95155717D01*
X149110602Y-95442499D01*
X149125001Y-95514888D01*
X149125000Y-98669289D01*
X149090280Y-98634569D01*
X148709874Y-98477000D01*
X148458447Y-98477000D01*
X146739000Y-96757554D01*
X146739000Y-96556126D01*
X146581431Y-96175720D01*
X146290280Y-95884569D01*
X145909874Y-95727000D01*
X145498126Y-95727000D01*
X145117720Y-95884569D01*
X144826569Y-96175720D01*
X144669000Y-96556126D01*
X144669000Y-96967874D01*
X144826569Y-97348280D01*
X144899349Y-97421060D01*
X144837289Y-97483120D01*
X144679720Y-97863526D01*
X144679720Y-98275274D01*
X144837289Y-98655680D01*
X144979720Y-98798111D01*
X144979721Y-99998275D01*
X143974911Y-98993465D01*
X143933905Y-98932095D01*
X143690783Y-98769646D01*
X143476388Y-98727000D01*
X143476384Y-98727000D01*
X143404000Y-98712602D01*
X143331616Y-98727000D01*
X141832711Y-98727000D01*
X141690280Y-98584569D01*
X141309874Y-98427000D01*
X140898126Y-98427000D01*
X140517720Y-98584569D01*
X140226569Y-98875720D01*
X140069000Y-99256126D01*
X129744443Y-99256126D01*
X129921000Y-98829881D01*
X129921000Y-98274119D01*
X129708320Y-97760663D01*
X129315337Y-97367680D01*
X129108487Y-97282000D01*
X129315337Y-97196320D01*
X129708320Y-96803337D01*
X129921000Y-96289881D01*
X129921000Y-95734119D01*
X129708320Y-95220663D01*
X129315337Y-94827680D01*
X129108487Y-94742000D01*
X129315337Y-94656320D01*
X129708320Y-94263337D01*
X129921000Y-93749881D01*
X129921000Y-93194119D01*
X129708320Y-92680663D01*
X129315337Y-92287680D01*
X129108487Y-92202000D01*
X129315337Y-92116320D01*
X129708320Y-91723337D01*
X129921000Y-91209881D01*
X129921000Y-90654119D01*
X129708320Y-90140663D01*
X129379383Y-89811726D01*
X159467600Y-89811726D01*
X159467600Y-90223474D01*
X159625169Y-90603880D01*
X159916320Y-90895031D01*
X160296726Y-91052600D01*
X160472754Y-91052600D01*
X160686800Y-91266647D01*
X160686800Y-91468074D01*
X160844369Y-91848480D01*
X161135520Y-92139631D01*
X161515926Y-92297200D01*
X161927674Y-92297200D01*
X162308080Y-92139631D01*
X162599231Y-91848480D01*
X162727452Y-91538926D01*
X165182600Y-91538926D01*
X165182600Y-91950674D01*
X165340169Y-92331080D01*
X165631320Y-92622231D01*
X166011726Y-92779800D01*
X166423474Y-92779800D01*
X166803880Y-92622231D01*
X167095031Y-92331080D01*
X167252600Y-91950674D01*
X167252600Y-91538926D01*
X167095031Y-91158520D01*
X167018275Y-91081764D01*
X167018275Y-89837322D01*
X167499000Y-89837322D01*
X167499000Y-90686678D01*
X167824034Y-91471380D01*
X168424620Y-92071966D01*
X169209322Y-92397000D01*
X170058678Y-92397000D01*
X170843380Y-92071966D01*
X171443966Y-91471380D01*
X171769000Y-90686678D01*
X171769000Y-89837322D01*
X171443966Y-89052620D01*
X170843380Y-88452034D01*
X170058678Y-88127000D01*
X169209322Y-88127000D01*
X168424620Y-88452034D01*
X167824034Y-89052620D01*
X167499000Y-89837322D01*
X167018275Y-89837322D01*
X167018275Y-87967186D01*
X167160706Y-87824755D01*
X167318275Y-87444349D01*
X167318275Y-87032601D01*
X167160706Y-86652195D01*
X166869555Y-86361044D01*
X166489149Y-86203475D01*
X166077401Y-86203475D01*
X165696995Y-86361044D01*
X165405844Y-86652195D01*
X165248275Y-87032601D01*
X165248275Y-87444349D01*
X165405844Y-87824755D01*
X165548275Y-87967186D01*
X165548276Y-90950413D01*
X165340169Y-91158520D01*
X165182600Y-91538926D01*
X162727452Y-91538926D01*
X162756800Y-91468074D01*
X162756800Y-91056326D01*
X162599231Y-90675920D01*
X162308080Y-90384769D01*
X161927674Y-90227200D01*
X161726247Y-90227200D01*
X161537600Y-90038554D01*
X161537600Y-89811726D01*
X161380031Y-89431320D01*
X161088880Y-89140169D01*
X160708474Y-88982600D01*
X160296726Y-88982600D01*
X159916320Y-89140169D01*
X159625169Y-89431320D01*
X159467600Y-89811726D01*
X129379383Y-89811726D01*
X129315337Y-89747680D01*
X129108487Y-89662000D01*
X129315337Y-89576320D01*
X129708320Y-89183337D01*
X129921000Y-88669881D01*
X129921000Y-88114119D01*
X129908743Y-88084526D01*
X143922800Y-88084526D01*
X143922800Y-88496274D01*
X144080369Y-88876680D01*
X144371520Y-89167831D01*
X144751926Y-89325400D01*
X145163674Y-89325400D01*
X145544080Y-89167831D01*
X145835231Y-88876680D01*
X145992800Y-88496274D01*
X145992800Y-88294846D01*
X146613247Y-87674400D01*
X146840074Y-87674400D01*
X147220480Y-87516831D01*
X147511631Y-87225680D01*
X147669200Y-86845274D01*
X147669200Y-86433526D01*
X147511631Y-86053120D01*
X147220480Y-85761969D01*
X146840074Y-85604400D01*
X146428326Y-85604400D01*
X146047920Y-85761969D01*
X145756769Y-86053120D01*
X145599200Y-86433526D01*
X145599200Y-86609553D01*
X144953354Y-87255400D01*
X144751926Y-87255400D01*
X144371520Y-87412969D01*
X144080369Y-87704120D01*
X143922800Y-88084526D01*
X129908743Y-88084526D01*
X129708320Y-87600663D01*
X129315337Y-87207680D01*
X129108487Y-87122000D01*
X129315337Y-87036320D01*
X129708320Y-86643337D01*
X129921000Y-86129881D01*
X129921000Y-85574119D01*
X129866659Y-85442926D01*
X170491200Y-85442926D01*
X170491200Y-85854674D01*
X170648769Y-86235080D01*
X170939920Y-86526231D01*
X171320326Y-86683800D01*
X171732074Y-86683800D01*
X172112480Y-86526231D01*
X172403631Y-86235080D01*
X172561200Y-85854674D01*
X172561200Y-85653247D01*
X172642537Y-85571910D01*
X172703905Y-85530905D01*
X172866354Y-85287783D01*
X172909000Y-85073388D01*
X172923399Y-85001000D01*
X172909000Y-84928612D01*
X172909000Y-83739563D01*
X173059680Y-84103337D01*
X173452663Y-84496320D01*
X173659513Y-84582000D01*
X173452663Y-84667680D01*
X173059680Y-85060663D01*
X172847000Y-85574119D01*
X172847000Y-86129881D01*
X173059680Y-86643337D01*
X173452663Y-87036320D01*
X173659513Y-87122000D01*
X173452663Y-87207680D01*
X173059680Y-87600663D01*
X172847000Y-88114119D01*
X172847000Y-88669881D01*
X173059680Y-89183337D01*
X173452663Y-89576320D01*
X173659513Y-89662000D01*
X173452663Y-89747680D01*
X173059680Y-90140663D01*
X172847000Y-90654119D01*
X172847000Y-91209881D01*
X173059680Y-91723337D01*
X173452663Y-92116320D01*
X173659513Y-92202000D01*
X173452663Y-92287680D01*
X173059680Y-92680663D01*
X172847000Y-93194119D01*
X172847000Y-93749881D01*
X173059680Y-94263337D01*
X173452663Y-94656320D01*
X173659513Y-94742000D01*
X173452663Y-94827680D01*
X173059680Y-95220663D01*
X172847000Y-95734119D01*
X172847000Y-96289881D01*
X173059680Y-96803337D01*
X173452663Y-97196320D01*
X173659513Y-97282000D01*
X173452663Y-97367680D01*
X173059680Y-97760663D01*
X172847000Y-98274119D01*
X172847000Y-98829881D01*
X173059680Y-99343337D01*
X173452663Y-99736320D01*
X173659513Y-99822000D01*
X173452663Y-99907680D01*
X173059680Y-100300663D01*
X172847000Y-100814119D01*
X172847000Y-101369881D01*
X173059680Y-101883337D01*
X173452663Y-102276320D01*
X173659513Y-102362000D01*
X173452663Y-102447680D01*
X173059680Y-102840663D01*
X172847000Y-103354119D01*
X172847000Y-103909881D01*
X173059680Y-104423337D01*
X173452663Y-104816320D01*
X173966119Y-105029000D01*
X174521881Y-105029000D01*
X175035337Y-104816320D01*
X175428320Y-104423337D01*
X175641000Y-103909881D01*
X175641000Y-103354119D01*
X175428320Y-102840663D01*
X175035337Y-102447680D01*
X174828487Y-102362000D01*
X175035337Y-102276320D01*
X175428320Y-101883337D01*
X175641000Y-101369881D01*
X175641000Y-100814119D01*
X175428320Y-100300663D01*
X175035337Y-99907680D01*
X174828487Y-99822000D01*
X175035337Y-99736320D01*
X175428320Y-99343337D01*
X175641000Y-98829881D01*
X175641000Y-98274119D01*
X175428320Y-97760663D01*
X175035337Y-97367680D01*
X174828487Y-97282000D01*
X175035337Y-97196320D01*
X175428320Y-96803337D01*
X175641000Y-96289881D01*
X175641000Y-95734119D01*
X175428320Y-95220663D01*
X175035337Y-94827680D01*
X174828487Y-94742000D01*
X175035337Y-94656320D01*
X175428320Y-94263337D01*
X175641000Y-93749881D01*
X175641000Y-93194119D01*
X175428320Y-92680663D01*
X175035337Y-92287680D01*
X174828487Y-92202000D01*
X175035337Y-92116320D01*
X175428320Y-91723337D01*
X175641000Y-91209881D01*
X175641000Y-90654119D01*
X175428320Y-90140663D01*
X175035337Y-89747680D01*
X174828487Y-89662000D01*
X175035337Y-89576320D01*
X175428320Y-89183337D01*
X175641000Y-88669881D01*
X175641000Y-88114119D01*
X175428320Y-87600663D01*
X175035337Y-87207680D01*
X174828487Y-87122000D01*
X175035337Y-87036320D01*
X175428320Y-86643337D01*
X175641000Y-86129881D01*
X175641000Y-85574119D01*
X175428320Y-85060663D01*
X175035337Y-84667680D01*
X174828487Y-84582000D01*
X175035337Y-84496320D01*
X175428320Y-84103337D01*
X175641000Y-83589881D01*
X175641000Y-83034119D01*
X175428320Y-82520663D01*
X175035337Y-82127680D01*
X174844353Y-82048572D01*
X174975143Y-81994397D01*
X175044608Y-81752213D01*
X174244000Y-80951605D01*
X173443392Y-81752213D01*
X173512857Y-81994397D01*
X173653393Y-82044535D01*
X173452663Y-82127680D01*
X173059680Y-82520663D01*
X172909000Y-82884437D01*
X172909000Y-81231296D01*
X173021603Y-81503143D01*
X173263787Y-81572608D01*
X174064395Y-80772000D01*
X174423605Y-80772000D01*
X175224213Y-81572608D01*
X175466397Y-81503143D01*
X175653144Y-80979698D01*
X175625362Y-80424632D01*
X175466397Y-80040857D01*
X175224213Y-79971392D01*
X174423605Y-80772000D01*
X174064395Y-80772000D01*
X173263787Y-79971392D01*
X173021603Y-80040857D01*
X172909000Y-80356479D01*
X172909000Y-79791787D01*
X173443392Y-79791787D01*
X174244000Y-80592395D01*
X175044608Y-79791787D01*
X174975143Y-79549603D01*
X174451698Y-79362856D01*
X173896632Y-79390638D01*
X173512857Y-79549603D01*
X173443392Y-79791787D01*
X172909000Y-79791787D01*
X172909000Y-74486446D01*
X174388447Y-73007000D01*
X174589874Y-73007000D01*
X174970280Y-72849431D01*
X175261431Y-72558280D01*
X175419000Y-72177874D01*
X175419000Y-71766126D01*
X175261431Y-71385720D01*
X174970280Y-71094569D01*
X174589874Y-70937000D01*
X174178126Y-70937000D01*
X173797720Y-71094569D01*
X173506569Y-71385720D01*
X173349000Y-71766126D01*
X173349000Y-71967553D01*
X171705465Y-73611089D01*
X171644095Y-73652095D01*
X171481646Y-73895218D01*
X171439000Y-74109613D01*
X171439000Y-74109616D01*
X171424602Y-74182000D01*
X171439000Y-74254384D01*
X171439001Y-84613800D01*
X171320326Y-84613800D01*
X170939920Y-84771369D01*
X170648769Y-85062520D01*
X170491200Y-85442926D01*
X129866659Y-85442926D01*
X129708320Y-85060663D01*
X129315337Y-84667680D01*
X129108487Y-84582000D01*
X129315337Y-84496320D01*
X129708320Y-84103337D01*
X129921000Y-83589881D01*
X129921000Y-83034119D01*
X129708320Y-82520663D01*
X129315337Y-82127680D01*
X129108487Y-82042000D01*
X129315337Y-81956320D01*
X129708320Y-81563337D01*
X129921000Y-81049881D01*
X129921000Y-80494119D01*
X129708320Y-79980663D01*
X129315337Y-79587680D01*
X128801881Y-79375000D01*
X128246119Y-79375000D01*
X127732663Y-79587680D01*
X127339680Y-79980663D01*
X127127000Y-80494119D01*
X127127000Y-81049881D01*
X127339680Y-81563337D01*
X127732663Y-81956320D01*
X127939513Y-82042000D01*
X127732663Y-82127680D01*
X127517080Y-82343263D01*
X126789000Y-81615184D01*
X126789000Y-79325467D01*
X126803399Y-79253080D01*
X126789000Y-79180692D01*
X126789000Y-77210711D01*
X126931431Y-77068280D01*
X127047041Y-76789172D01*
X130389330Y-76789172D01*
X130389330Y-77200920D01*
X130546899Y-77581326D01*
X130838050Y-77872477D01*
X131218456Y-78030046D01*
X131630204Y-78030046D01*
X132010610Y-77872477D01*
X132153041Y-77730046D01*
X132390964Y-77730046D01*
X132417778Y-77794782D01*
X132708929Y-78085933D01*
X133089335Y-78243502D01*
X133501083Y-78243502D01*
X133881489Y-78085933D01*
X134172640Y-77794782D01*
X134330209Y-77414376D01*
X134330209Y-77002628D01*
X134172640Y-76622222D01*
X133881489Y-76331071D01*
X133501083Y-76173502D01*
X133089335Y-76173502D01*
X132880399Y-76260046D01*
X132153041Y-76260046D01*
X132010610Y-76117615D01*
X131630204Y-75960046D01*
X131218456Y-75960046D01*
X130838050Y-76117615D01*
X130546899Y-76408766D01*
X130389330Y-76789172D01*
X127047041Y-76789172D01*
X127089000Y-76687874D01*
X127089000Y-76276126D01*
X126931431Y-75895720D01*
X126640280Y-75604569D01*
X126259874Y-75447000D01*
X125848126Y-75447000D01*
X125467720Y-75604569D01*
X125176569Y-75895720D01*
X125019000Y-76276126D01*
X125019000Y-76687874D01*
X125176569Y-77068280D01*
X125319001Y-77210712D01*
X125319000Y-78518080D01*
X125056631Y-78518080D01*
X124939600Y-78401049D01*
X124559194Y-78243480D01*
X124147446Y-78243480D01*
X123767040Y-78401049D01*
X123475889Y-78692200D01*
X123318320Y-79072606D01*
X123318320Y-79484354D01*
X123475889Y-79864760D01*
X123767040Y-80155911D01*
X124147446Y-80313480D01*
X124559194Y-80313480D01*
X124939600Y-80155911D01*
X125107431Y-79988080D01*
X125319001Y-79988080D01*
X125319000Y-81545602D01*
X125301136Y-81572338D01*
X125244092Y-81859120D01*
X125301136Y-82145902D01*
X125463585Y-82389025D01*
X125524955Y-82430031D01*
X126875460Y-83780537D01*
X126916465Y-83841905D01*
X127159587Y-84004354D01*
X127311169Y-84034506D01*
X127339680Y-84103337D01*
X127732663Y-84496320D01*
X127939513Y-84582000D01*
X127732663Y-84667680D01*
X127339680Y-85060663D01*
X127127000Y-85574119D01*
X127127000Y-86129881D01*
X127150335Y-86186218D01*
X125501754Y-87834800D01*
X125040384Y-87834800D01*
X124968000Y-87820402D01*
X124895616Y-87834800D01*
X117068247Y-87834800D01*
X114460505Y-85227059D01*
X114657000Y-84752678D01*
X114657000Y-83903322D01*
X114331966Y-83118620D01*
X113731380Y-82518034D01*
X112946678Y-82193000D01*
X112097322Y-82193000D01*
X111312620Y-82518034D01*
X110712034Y-83118620D01*
X110387000Y-83903322D01*
X109905000Y-83903322D01*
X109905000Y-77807322D01*
X110387000Y-77807322D01*
X110387000Y-78656678D01*
X110712034Y-79441380D01*
X111312620Y-80041966D01*
X112097322Y-80367000D01*
X112946678Y-80367000D01*
X113731380Y-80041966D01*
X114331966Y-79441380D01*
X114657000Y-78656678D01*
X114657000Y-77807322D01*
X114331966Y-77022620D01*
X113731380Y-76422034D01*
X112946678Y-76097000D01*
X112097322Y-76097000D01*
X111312620Y-76422034D01*
X110712034Y-77022620D01*
X110387000Y-77807322D01*
X109905000Y-77807322D01*
X109905000Y-74470126D01*
X120453200Y-74470126D01*
X120453200Y-74881874D01*
X120610769Y-75262280D01*
X120901920Y-75553431D01*
X121282326Y-75711000D01*
X121694074Y-75711000D01*
X122074480Y-75553431D01*
X122365631Y-75262280D01*
X122517296Y-74896126D01*
X167699000Y-74896126D01*
X167699000Y-75307874D01*
X167856569Y-75688280D01*
X168147720Y-75979431D01*
X168528126Y-76137000D01*
X168939874Y-76137000D01*
X169320280Y-75979431D01*
X169611431Y-75688280D01*
X169769000Y-75307874D01*
X169769000Y-74896126D01*
X169611431Y-74515720D01*
X169469000Y-74373289D01*
X169469000Y-72286446D01*
X169898447Y-71857000D01*
X170099874Y-71857000D01*
X170480280Y-71699431D01*
X170771431Y-71408280D01*
X170929000Y-71027874D01*
X170929000Y-70616126D01*
X170771431Y-70235720D01*
X170480280Y-69944569D01*
X170099874Y-69787000D01*
X169688126Y-69787000D01*
X169307720Y-69944569D01*
X169016569Y-70235720D01*
X168859000Y-70616126D01*
X168859000Y-70817553D01*
X168265463Y-71411091D01*
X168204096Y-71452095D01*
X168163092Y-71513462D01*
X168163091Y-71513463D01*
X168041646Y-71695218D01*
X167984602Y-71982000D01*
X167999001Y-72054389D01*
X167999000Y-73254387D01*
X167999001Y-73254392D01*
X167999000Y-74373289D01*
X167856569Y-74515720D01*
X167699000Y-74896126D01*
X122517296Y-74896126D01*
X122523200Y-74881874D01*
X122523200Y-74470126D01*
X122365631Y-74089720D01*
X122274000Y-73998089D01*
X122274000Y-72946126D01*
X130333800Y-72946126D01*
X130333800Y-73357874D01*
X130491369Y-73738280D01*
X130782520Y-74029431D01*
X131162926Y-74187000D01*
X131574674Y-74187000D01*
X131955080Y-74029431D01*
X132097511Y-73887000D01*
X133719639Y-73887000D01*
X133930601Y-73974383D01*
X134342349Y-73974383D01*
X134722755Y-73816814D01*
X135013906Y-73525663D01*
X135171475Y-73145257D01*
X135171475Y-72733509D01*
X135013906Y-72353103D01*
X134722755Y-72061952D01*
X134342349Y-71904383D01*
X133930601Y-71904383D01*
X133550195Y-72061952D01*
X133259044Y-72353103D01*
X133232577Y-72417000D01*
X132097511Y-72417000D01*
X131955080Y-72274569D01*
X131574674Y-72117000D01*
X131162926Y-72117000D01*
X130782520Y-72274569D01*
X130491369Y-72565720D01*
X130333800Y-72946126D01*
X122274000Y-72946126D01*
X122274000Y-71191346D01*
X122742620Y-71659966D01*
X123527322Y-71985000D01*
X124376678Y-71985000D01*
X125161380Y-71659966D01*
X125761966Y-71059380D01*
X126087000Y-70274678D01*
X126087000Y-69425322D01*
X125761966Y-68640620D01*
X125161380Y-68040034D01*
X124376678Y-67715000D01*
X123527322Y-67715000D01*
X122742620Y-68040034D01*
X122274000Y-68508654D01*
X122274000Y-64967285D01*
X122381746Y-64859539D01*
X122539315Y-64479133D01*
X122539315Y-64067385D01*
X122381746Y-63686979D01*
X122090595Y-63395828D01*
X121710189Y-63238259D01*
X121298441Y-63238259D01*
X120918035Y-63395828D01*
X120626884Y-63686979D01*
X120469315Y-64067385D01*
X120469315Y-64479133D01*
X120626884Y-64859539D01*
X120804001Y-65036656D01*
X120804000Y-71276212D01*
X120804000Y-71276213D01*
X120804001Y-73896488D01*
X120610769Y-74089720D01*
X120453200Y-74470126D01*
X109905000Y-74470126D01*
X109905000Y-66242670D01*
X112511000Y-66242670D01*
X112511000Y-66853330D01*
X112744690Y-67417507D01*
X113176493Y-67849310D01*
X113740670Y-68083000D01*
X114351330Y-68083000D01*
X114915507Y-67849310D01*
X115347310Y-67417507D01*
X115355438Y-67397885D01*
X115505841Y-67448554D01*
X116406395Y-66548000D01*
X115505841Y-65647446D01*
X115355438Y-65698115D01*
X115347310Y-65678493D01*
X115136658Y-65467841D01*
X115685446Y-65467841D01*
X116586000Y-66368395D01*
X116600143Y-66354253D01*
X116779748Y-66533858D01*
X116765605Y-66548000D01*
X116779748Y-66562143D01*
X116600143Y-66741748D01*
X116586000Y-66727605D01*
X115685446Y-67628159D01*
X115771852Y-67884643D01*
X116345336Y-68094458D01*
X116955460Y-68068839D01*
X117400148Y-67884643D01*
X117486553Y-67628161D01*
X117601110Y-67742718D01*
X117635942Y-67707886D01*
X117768191Y-67905809D01*
X117978235Y-68046157D01*
X118226000Y-68095440D01*
X120026000Y-68095440D01*
X120273765Y-68046157D01*
X120483809Y-67905809D01*
X120624157Y-67695765D01*
X120673440Y-67448000D01*
X120673440Y-65648000D01*
X120624157Y-65400235D01*
X120483809Y-65190191D01*
X120273765Y-65049843D01*
X120026000Y-65000560D01*
X118226000Y-65000560D01*
X117978235Y-65049843D01*
X117768191Y-65190191D01*
X117635942Y-65388114D01*
X117601110Y-65353282D01*
X117486553Y-65467839D01*
X117400148Y-65211357D01*
X116826664Y-65001542D01*
X116216540Y-65027161D01*
X115771852Y-65211357D01*
X115685446Y-65467841D01*
X115136658Y-65467841D01*
X114915507Y-65246690D01*
X114351330Y-65013000D01*
X113740670Y-65013000D01*
X113176493Y-65246690D01*
X112744690Y-65678493D01*
X112511000Y-66242670D01*
X109905000Y-66242670D01*
X109905000Y-65152287D01*
X110131726Y-65246200D01*
X110543474Y-65246200D01*
X110923880Y-65088631D01*
X111215031Y-64797480D01*
X111372600Y-64417074D01*
X111372600Y-64005326D01*
X111215031Y-63624920D01*
X111072600Y-63482489D01*
X111072600Y-59623814D01*
X118723714Y-59623814D01*
X118738130Y-59696215D01*
X118998026Y-60174369D01*
X119421120Y-60516668D01*
X119943000Y-60671000D01*
X120697000Y-60671000D01*
X120697000Y-59409000D01*
X120951000Y-59409000D01*
X120951000Y-60671000D01*
X121705000Y-60671000D01*
X122092186Y-60556500D01*
X171491060Y-60556500D01*
X171491060Y-62207500D01*
X171540343Y-62455265D01*
X171680691Y-62665309D01*
X171890735Y-62805657D01*
X171994287Y-62826254D01*
X171725848Y-63094693D01*
X171503500Y-63631488D01*
X171503500Y-64212512D01*
X171725848Y-64749307D01*
X172136693Y-65160152D01*
X172673488Y-65382500D01*
X173254512Y-65382500D01*
X173791307Y-65160152D01*
X174202152Y-64749307D01*
X174234000Y-64672419D01*
X174265848Y-64749307D01*
X174676693Y-65160152D01*
X175213488Y-65382500D01*
X175794512Y-65382500D01*
X176331307Y-65160152D01*
X176742152Y-64749307D01*
X176964500Y-64212512D01*
X176964500Y-63631488D01*
X176742152Y-63094693D01*
X176331307Y-62683848D01*
X176254419Y-62652000D01*
X176331307Y-62620152D01*
X176742152Y-62209307D01*
X176964500Y-61672512D01*
X176964500Y-61091488D01*
X176742152Y-60554693D01*
X176331307Y-60143848D01*
X175794512Y-59921500D01*
X175213488Y-59921500D01*
X174676693Y-60143848D01*
X174408254Y-60412287D01*
X174387657Y-60308735D01*
X174247309Y-60098691D01*
X174037265Y-59958343D01*
X173789500Y-59909060D01*
X172138500Y-59909060D01*
X171890735Y-59958343D01*
X171680691Y-60098691D01*
X171540343Y-60308735D01*
X171491060Y-60556500D01*
X122092186Y-60556500D01*
X122226880Y-60516668D01*
X122649974Y-60174369D01*
X122909870Y-59696215D01*
X122924286Y-59623814D01*
X122801677Y-59409000D01*
X120951000Y-59409000D01*
X120697000Y-59409000D01*
X118846323Y-59409000D01*
X118723714Y-59623814D01*
X111072600Y-59623814D01*
X111072600Y-58940186D01*
X118723714Y-58940186D01*
X118846323Y-59155000D01*
X120697000Y-59155000D01*
X120697000Y-57893000D01*
X120951000Y-57893000D01*
X120951000Y-59155000D01*
X122801677Y-59155000D01*
X122924286Y-58940186D01*
X122909870Y-58867785D01*
X122649974Y-58389631D01*
X122226880Y-58047332D01*
X121705000Y-57893000D01*
X120951000Y-57893000D01*
X120697000Y-57893000D01*
X119943000Y-57893000D01*
X119421120Y-58047332D01*
X118998026Y-58389631D01*
X118738130Y-58867785D01*
X118723714Y-58940186D01*
X111072600Y-58940186D01*
X111072600Y-56502846D01*
X112388447Y-55187000D01*
X112589874Y-55187000D01*
X112970280Y-55029431D01*
X113261431Y-54738280D01*
X113273559Y-54709000D01*
X116435000Y-54709000D01*
X116435000Y-55463000D01*
X116589332Y-55984880D01*
X116931631Y-56407974D01*
X117409785Y-56667870D01*
X117482186Y-56682286D01*
X117697000Y-56559677D01*
X117697000Y-54709000D01*
X117951000Y-54709000D01*
X117951000Y-56559677D01*
X118165814Y-56682286D01*
X118238215Y-56667870D01*
X118716369Y-56407974D01*
X119058668Y-55984880D01*
X119213000Y-55463000D01*
X119213000Y-54709000D01*
X117951000Y-54709000D01*
X117697000Y-54709000D01*
X116435000Y-54709000D01*
X113273559Y-54709000D01*
X113419000Y-54357874D01*
X113419000Y-53946126D01*
X113317466Y-53701000D01*
X116435000Y-53701000D01*
X116435000Y-54455000D01*
X117697000Y-54455000D01*
X117697000Y-52604323D01*
X117951000Y-52604323D01*
X117951000Y-54455000D01*
X119213000Y-54455000D01*
X119213000Y-53701000D01*
X119210101Y-53691196D01*
X122435000Y-53691196D01*
X122435000Y-55472803D01*
X122515591Y-55877960D01*
X122822587Y-56337412D01*
X123282039Y-56644409D01*
X123824000Y-56752212D01*
X124365960Y-56644409D01*
X124825412Y-56337413D01*
X125132409Y-55877961D01*
X125213000Y-55472804D01*
X125213000Y-53691196D01*
X125132409Y-53286039D01*
X124985718Y-53066500D01*
X138071060Y-53066500D01*
X138071060Y-54717500D01*
X138120343Y-54965265D01*
X138260691Y-55175309D01*
X138470735Y-55315657D01*
X138718500Y-55364940D01*
X140369500Y-55364940D01*
X140617265Y-55315657D01*
X140827309Y-55175309D01*
X140967657Y-54965265D01*
X140988254Y-54861713D01*
X141256693Y-55130152D01*
X141793488Y-55352500D01*
X142374512Y-55352500D01*
X142911307Y-55130152D01*
X143322152Y-54719307D01*
X143544500Y-54182512D01*
X143544500Y-54103000D01*
X174145560Y-54103000D01*
X174145560Y-56053000D01*
X174194843Y-56300765D01*
X174335191Y-56510809D01*
X174545235Y-56651157D01*
X174793000Y-56700440D01*
X176743000Y-56700440D01*
X176990765Y-56651157D01*
X177200809Y-56510809D01*
X177341157Y-56300765D01*
X177390440Y-56053000D01*
X177390440Y-54103000D01*
X177341157Y-53855235D01*
X177200809Y-53645191D01*
X176990765Y-53504843D01*
X176743000Y-53455560D01*
X174793000Y-53455560D01*
X174545235Y-53504843D01*
X174335191Y-53645191D01*
X174194843Y-53855235D01*
X174145560Y-54103000D01*
X143544500Y-54103000D01*
X143544500Y-53601488D01*
X143322152Y-53064693D01*
X142911307Y-52653848D01*
X142834419Y-52622000D01*
X142911307Y-52590152D01*
X143322152Y-52179307D01*
X143544500Y-51642512D01*
X143544500Y-51061488D01*
X143322152Y-50524693D01*
X142911307Y-50113848D01*
X142374512Y-49891500D01*
X141793488Y-49891500D01*
X141256693Y-50113848D01*
X140845848Y-50524693D01*
X140814000Y-50601581D01*
X140782152Y-50524693D01*
X140371307Y-50113848D01*
X139834512Y-49891500D01*
X139253488Y-49891500D01*
X138716693Y-50113848D01*
X138305848Y-50524693D01*
X138083500Y-51061488D01*
X138083500Y-51642512D01*
X138305848Y-52179307D01*
X138574287Y-52447746D01*
X138470735Y-52468343D01*
X138260691Y-52608691D01*
X138120343Y-52818735D01*
X138071060Y-53066500D01*
X124985718Y-53066500D01*
X124825413Y-52826587D01*
X124365961Y-52519591D01*
X123824000Y-52411788D01*
X123282040Y-52519591D01*
X122822588Y-52826587D01*
X122515592Y-53286039D01*
X122435000Y-53691196D01*
X119210101Y-53691196D01*
X119058668Y-53179120D01*
X118716369Y-52756026D01*
X118238215Y-52496130D01*
X118165814Y-52481714D01*
X117951000Y-52604323D01*
X117697000Y-52604323D01*
X117482186Y-52481714D01*
X117409785Y-52496130D01*
X116931631Y-52756026D01*
X116589332Y-53179120D01*
X116435000Y-53701000D01*
X113317466Y-53701000D01*
X113261431Y-53565720D01*
X112970280Y-53274569D01*
X112589874Y-53117000D01*
X112178126Y-53117000D01*
X111797720Y-53274569D01*
X111506569Y-53565720D01*
X111349000Y-53946126D01*
X111349000Y-54147553D01*
X109905000Y-55591554D01*
X109905000Y-46405000D01*
X135277818Y-46405000D01*
X135251240Y-46469166D01*
G04 #@! TD*
M02*
